{
    "_id": "w2GSRC5uMcSUfPGJ",
    "data": {
        "boosts": {
            "0": {
                "value": [
                    "cha",
                    "str"
                ]
            },
            "1": {
                "value": [
                    "cha",
                    "con",
                    "dex",
                    "int",
                    "str",
                    "wis"
                ]
            }
        },
        "description": {
            "value": "<p>Your birth has fulfilled a prediction, and people close to you are counting on you to do great things. There's intense pressure on you to be up to the task, and the fickle nature of prophecy complicates your path.</p>\n<p>Choose two ability boosts. One must be to <strong>Strength</strong> or <strong>Charisma</strong>, and one is a free ability boost.</p>\n<p>Decide with your GM the basics of the prophecy in which you're meant to play a major part. You're trained in one skill related to the prophecy, and the Fortune-Telling Lore skill. You gain the Prophecy's Pawn free action.</p>\n<hr />\n<p><em>Note: You must select the skill manually and add the Prophecy's Pawn action</em></p>"
        },
        "items": {},
        "rules": [],
        "source": {
            "value": "Pathfinder Secrets of Magic"
        },
        "trainedLore": "Fortune-Telling Lore",
        "trainedSkills": {
            "value": []
        },
        "traits": {
            "custom": "",
            "rarity": {
                "value": "rare"
            },
            "value": []
        }
    },
    "effects": [],
    "flags": {},
    "img": "systems/pf2e/icons/default-icons/background.svg",
    "name": "Chosen One",
    "type": "background"
}
