{
    "_id": "4XpWgGejwb2L6WpK",
    "data": {
        "boosts": {
            "0": {
                "value": [
                    "int",
                    "wis"
                ]
            },
            "1": {
                "value": [
                    "cha",
                    "con",
                    "dex",
                    "int",
                    "str",
                    "wis"
                ]
            }
        },
        "description": {
            "value": "<p>Whether you're employed by a military organization to decipher coded messages sent by enemy factions or work independently to crack an enigma created by a past civilization, you have a head for patterns and linguistics. You might even use new clockwork devices to aid you in your efforts.</p>\n<p>Choose two ability boosts. One must be to <strong>Intelligence</strong> or <strong>Wisdom</strong>, and one is a free ability boost.</p>\n<p>You're trained in the Society skill and the Cryptography Lore skill. You gain the @Compendium[pf2e.feats-srd.Glean Contents]{Glean Contents} skill feat.</p>"
        },
        "items": {
            "m7kmw": {
                "id": "WeQGWvlWdeLeOlCN",
                "img": "systems/pf2e/icons/features/feats/feats.webp",
                "level": 1,
                "name": "Glean Contents",
                "pack": "pf2e.feats-srd"
            }
        },
        "rules": [],
        "source": {
            "value": "Pathfinder Guns & Gears"
        },
        "trainedLore": "Cryptography",
        "trainedSkills": {
            "custom": "",
            "value": [
                "soc"
            ]
        },
        "traits": {
            "custom": "",
            "rarity": {
                "value": "common"
            },
            "value": []
        }
    },
    "effects": [],
    "flags": {},
    "img": "systems/pf2e/icons/default-icons/background.svg",
    "name": "Codebreaker",
    "type": "background"
}
