{
    "_id": "ajcpRVb5EG00l7Y4",
    "data": {
        "boosts": {
            "0": {
                "value": [
                    "cha",
                    "int"
                ]
            },
            "1": {
                "value": [
                    "cha",
                    "con",
                    "dex",
                    "int",
                    "str",
                    "wis"
                ]
            }
        },
        "description": {
            "value": "<p><strong>Prerequisite</strong>: Region - Eye of Dread</p>\n<hr />\n<p>Rumors abound that your family is cursed. While that would explain several unfortunate events in your family history, you may or may not believe it. Regardless, odd coincidences plague your lineage, and perhaps even appear in your own life, and you have become used to spotting strangeness around you.</p>\n<p>Choose two ability boosts. One must be to <strong>Intelligence</strong> or <strong>Charisma</strong>, and one is a free ability boost.</p>\n<p>You're trained in the Occultism skill and the Curse Lore skill. You gain the @Compendium[pf2e.feats-srd.Oddity Identification]{Oddity Identification} skill feat.</p>"
        },
        "items": {
            "fnrcy": {
                "id": "hDGosy2ZTwnyctEP",
                "img": "systems/pf2e/icons/features/feats/feats.webp",
                "level": "1",
                "name": "Oddity Identification",
                "pack": "pf2e.feats-srd"
            }
        },
        "rules": [],
        "source": {
            "value": "Pathfinder Lost Omens: World Guide"
        },
        "trainedLore": "Curse Lore",
        "trainedSkills": {
            "value": [
                "occ"
            ]
        },
        "traits": {
            "custom": "",
            "rarity": {
                "value": "common"
            },
            "value": []
        }
    },
    "effects": [],
    "flags": {},
    "img": "systems/pf2e/icons/default-icons/background.svg",
    "name": "Cursed Family",
    "type": "background"
}
