{
    "_id": "UFHezf1LXUwcQIAQ",
    "data": {
        "boosts": {
            "0": {
                "value": [
                    "con",
                    "wis"
                ]
            },
            "1": {
                "value": [
                    "cha",
                    "con",
                    "dex",
                    "int",
                    "str",
                    "wis"
                ]
            }
        },
        "description": {
            "value": "<p>While you once spoke to a small congregation in a ramshackle church, those days are behind you now. Your church was destroyed, your congregants scattered, and now you meander the lands holding a worn copy of your religious text in one hand, and a fiery conviction in the other.</p>\n<p>Choose two ability boosts. One boost must be to <strong>Constitution</strong> or <strong>Wisdom</strong>, and one is a free ability boost.</p>\n<p>You're trained in the Religion skill and a Lore skill associated with the deity you preach for (such as Pharasmin Lore). You gain the @Compendium[pf2e.feats-srd.Pilgrim's Token]{Pilgrim's Token} skill feat.</p>"
        },
        "items": {
            "bcwu2": {
                "id": "BqceQIKE0lwIS98s",
                "img": "systems/pf2e/icons/features/feats/feats.webp",
                "level": 1,
                "name": "Pilgrim's Token",
                "pack": "pf2e.feats-srd"
            }
        },
        "rules": [],
        "source": {
            "value": ""
        },
        "trainedLore": "",
        "trainedSkills": {
            "custom": "",
            "value": [
                "rel"
            ]
        },
        "traits": {
            "custom": "",
            "rarity": {
                "value": "common"
            },
            "value": []
        }
    },
    "effects": [],
    "flags": {},
    "img": "systems/pf2e/icons/default-icons/background.svg",
    "name": "Wandering Preacher",
    "type": "background"
}
