{
    "_id": "cFJUxi5kCcBV6lz1",
    "data": {
        "baseItem": null,
        "brokenThreshold": {
            "value": 0
        },
        "bulkCapacity": {
            "value": ""
        },
        "collapsed": {
            "value": false
        },
        "containerId": {
            "value": null
        },
        "description": {
            "value": "<p>This rune depicts a specific type of dragon, resizing after application to fit the surface of the item.</p>\n<hr />\n<p><strong>Activate</strong> <span class=\"pf2-icon\">f</span> envision (metamagic);</p>\n<p><strong>Requirements</strong> You're receiving a bonus to AC from your <em>dragon's breath</em> cape or shield;</p>\n<p><strong>Effect</strong> If your next action is to @Compendium[pf2e.actionspf2e.Cast a Spell]{Cast a Spell} with an area of effect that deals the same type of damage as the depicted dragon's breath weapon, the spell gains the effects of the @Compendium[pf2e.feats-srd.Widen Spell]{Widen Spell} feat. The rune can only affect spells of 9th level or lower.</p>"
        },
        "equipped": {
            "value": false
        },
        "equippedBulk": {
            "value": ""
        },
        "hardness": {
            "value": 0
        },
        "hp": {
            "value": 0
        },
        "identification": {
            "misidentified": {},
            "status": "identified",
            "unidentified": {
                "data": {
                    "description": {
                        "value": ""
                    }
                },
                "img": "",
                "name": ""
            }
        },
        "invested": {
            "value": null
        },
        "level": {
            "value": 20
        },
        "maxHp": {
            "value": 0
        },
        "negateBulk": {
            "value": "0"
        },
        "preciousMaterial": {
            "value": null
        },
        "preciousMaterialGrade": {
            "value": null
        },
        "price": {
            "value": "70000 gp"
        },
        "quantity": {
            "value": 1
        },
        "rules": [],
        "size": {
            "value": "med"
        },
        "source": {
            "value": "Pathfinder Lost Omens: The Grand Bazaar"
        },
        "stackGroup": {
            "value": ""
        },
        "traits": {
            "custom": "",
            "rarity": {
                "value": "uncommon"
            },
            "value": [
                "magical",
                "transmutation"
            ]
        },
        "usage": {
            "value": "applied-to-dueling-cape-or-shield"
        },
        "weight": {
            "value": "-"
        }
    },
    "effects": [],
    "flags": {},
    "img": "systems/pf2e/icons/equipment/consumables/other-consumables/runestone.webp",
    "name": "Dragon's Breath (9th Level Spell)",
    "type": "equipment"
}
