{
    "_id": "erP57YMboay9Ns4L",
    "data": {
        "baseItem": null,
        "brokenThreshold": {
            "value": 0
        },
        "bulkCapacity": {
            "value": ""
        },
        "collapsed": {
            "value": false
        },
        "containerId": {
            "value": null
        },
        "description": {
            "value": "<p>These bronze gauntlets each have a small red gem embedded in the wrist. You gain a +3 item bonus to Athletics checks and a +1 circumstance bonus to Athletics checks to Grapple. If you successfully Grapple an enemy that's at least one size category larger than you, the gauntlets dig into it, dealing bludgeoning damage equal to your Strength modifier, plus an additional [[/r {2d6}[bludgeoning]]]{2d6 bludgeoning damage} on a critical success.</p>\n<p>When you invest the gloves, you either increase your Strength score by 2 or increase it to 18, whichever would give you a higher score.</p>\n<hr />\n<p><strong>Activate</strong> <span class=\"pf2-icon\">1</span> Interact (sonic);</p>\n<p><strong>Frequency</strong> once per day;</p>\n<p><strong>Requirements</strong> You have two hands free;</p>\n<p><strong>Effect</strong> You clap the gauntlets together with a thunderous crack that deals [[/r {6d10}[sonic]]]{6d10 sonic damage} in a <span data-pf2-effect-area=\"emanation\" data-pf2-distance=\"30\">30-foot emanation</span>. Each creature in the area must attempt a <span data-pf2-check=\"fortitude\" data-pf2-traits=\"apex,evocation,invested,magical,sonic\" data-pf2-label=\"Titan's Grasp Sonic Clap DC\" data-pf2-dc=\"35\" data-pf2-show-dc=\"all\">Fortitude</span> save.</p>\n<hr />\n<p><strong>Critical Success</strong> The creature is unaffected.</p>\n<p><strong>Success</strong> The creature takes half damage.</p>\n<p><strong>Failure</strong> The creature takes full damage and is @Compendium[pf2e.conditionitems.Deafened]{Deafened} for 1 round.</p>\n<p><strong>Critical Failure</strong> The creature takes double damage, is deafened for 1 minute, and is @Compendium[pf2e.conditionitems.Stunned]{Stunned 1}.</p>"
        },
        "equipped": {
            "value": false
        },
        "equippedBulk": {
            "value": ""
        },
        "hardness": {
            "value": 0
        },
        "hp": {
            "value": 0
        },
        "identification": {
            "misidentified": {},
            "status": "identified",
            "unidentified": {
                "data": {
                    "description": {
                        "value": ""
                    }
                },
                "img": "",
                "name": ""
            }
        },
        "invested": {
            "value": null
        },
        "level": {
            "value": 18
        },
        "maxHp": {
            "value": 0
        },
        "negateBulk": {
            "value": "0"
        },
        "preciousMaterial": {
            "value": null
        },
        "preciousMaterialGrade": {
            "value": null
        },
        "price": {
            "value": "24000 gp"
        },
        "quantity": {
            "value": 1
        },
        "rules": [
            {
                "key": "FlatModifier",
                "selector": "athletics",
                "type": "item",
                "value": 3
            },
            {
                "key": "FlatModifier",
                "label": "Titan's Grasp (Grapple)",
                "predicate": {
                    "all": [
                        "action:grapple"
                    ]
                },
                "selector": "athletics",
                "type": "circumstance",
                "value": 1
            },
            {
                "key": "ActiveEffectLike",
                "mode": "add",
                "path": "data.abilities.str.value",
                "value": 2
            },
            {
                "key": "ActiveEffectLike",
                "mode": "upgrade",
                "path": "data.abilities.str.value",
                "value": 18
            }
        ],
        "size": {
            "value": "med"
        },
        "source": {
            "value": "Pathfinder Secrets of Magic"
        },
        "stackGroup": {
            "value": ""
        },
        "traits": {
            "custom": "",
            "rarity": {
                "value": "common"
            },
            "value": [
                "apex",
                "evocation",
                "invested",
                "magical"
            ]
        },
        "usage": {
            "value": "worngloves"
        },
        "weight": {
            "value": "L"
        }
    },
    "effects": [],
    "flags": {},
    "img": "systems/pf2e/icons/default-icons/equipment.svg",
    "name": "Titan's Grasp",
    "type": "equipment"
}
