{
    "_id": "YsgpbtWVT3q0OLWv",
    "data": {
        "abilities": {
            "cha": {
                "mod": -4
            },
            "con": {
                "mod": 5
            },
            "dex": {
                "mod": 3
            },
            "int": {
                "mod": -5
            },
            "str": {
                "mod": 6
            },
            "wis": {
                "mod": 2
            }
        },
        "attributes": {
            "ac": {
                "details": "",
                "value": 23
            },
            "allSaves": {
                "value": ""
            },
            "hp": {
                "details": "",
                "max": 140,
                "temp": 0,
                "value": 140
            },
            "initiative": {
                "ability": "perception"
            },
            "perception": {
                "value": 13
            },
            "shield": {
                "ac": 2,
                "brokenThreshold": 0,
                "hardness": 0,
                "max": 0,
                "value": 0
            },
            "speed": {
                "otherSpeeds": [
                    {
                        "type": "burrow",
                        "value": "40"
                    }
                ],
                "value": "25"
            }
        },
        "details": {
            "alignment": {
                "value": "N"
            },
            "blurb": "",
            "creatureType": "",
            "level": {
                "value": 7
            },
            "privateNotes": "",
            "publicNotes": "<p>These Darklands vermin produce corrosive, noxious slime and deliver agonizing bites, whether as a revolting, wriggling swarm of finger-length worms or a single massive, lurching beast. Among Darklands communities, most inhabitants regard bore worms much in the same way surface cultures speak of maggots or cockroaches-with general disdain and revulsion. Children consider catching a single bore worm and using it to torment others a rite of passage, albeit a dangerous one.</p>\n<hr />\n<p>When an area lacks sufficient food, the bore worms in a swarm become increasingly agitated and desperate. Eventually, at some chemical signal, the worms begin to cannibalize each other, devouring one other in a frenzy too gruesome to behold. A single worm emerges from this melee victorious; it rapidly grows larger and more voracious until it reaches an absolutely elephantine size.</p>\n<p>This empress bore worm lives only briefly, as it sets out in search of a new feeding ground and eats everything in its path in an attempt to sustain itself. However, the empress bore worm's ravenous metabolism demands more from its body than what it can physically sustain, as it exists only as a vessel for the next generation. Most live only a few days, or weeks at best, traveling and eating nonstop before dying-and in so doing, giving birth to new swarms of bore worms.</p>\n<hr />\n<p>Dwelling in the deepest, hottest reaches of the Darklands, these bizarre creatures consume not living matter but minerals and rare earths. They're most often found near volcanoes or open magma and will swim through the lava in pursuit of a meal. Lava worms are immune to fire rather than to acid, and they substitute fire for acid in all of their attacks and abilities.</p>",
            "source": {
                "value": "Pathfinder Bestiary 3"
            }
        },
        "resources": {},
        "saves": {
            "fortitude": {
                "saveDetail": "",
                "value": 18
            },
            "reflex": {
                "saveDetail": "",
                "value": 14
            },
            "will": {
                "saveDetail": "",
                "value": 11
            }
        },
        "traits": {
            "attitude": {
                "value": "hostile"
            },
            "ci": [],
            "di": {
                "custom": "",
                "value": [
                    "fire"
                ]
            },
            "dr": [],
            "dv": [
                {
                    "exceptions": "",
                    "label": "Water",
                    "type": "water",
                    "value": 10
                }
            ],
            "languages": {
                "custom": "",
                "selected": [],
                "value": []
            },
            "rarity": {
                "value": "common"
            },
            "senses": {
                "value": "tremorsense (imprecise) 60 feet"
            },
            "size": {
                "value": "huge"
            },
            "traits": {
                "custom": "",
                "value": [
                    "animal"
                ]
            }
        }
    },
    "effects": [],
    "flags": {},
    "img": "systems/pf2e/icons/default-icons/npc.svg",
    "items": [
        {
            "_id": "tauTat1vId2N5H4u",
            "data": {
                "attack": {
                    "value": ""
                },
                "attackEffects": {
                    "custom": "",
                    "value": [
                        "painful-bite"
                    ]
                },
                "bonus": {
                    "value": 17
                },
                "damageRolls": {
                    "gj361eku2o8e4t0kykkj": {
                        "damage": "2d6+9",
                        "damageType": "piercing"
                    },
                    "6283fieltxwavj1plyh6": {
                        "damage": "1d6",
                        "damageType": "fire"
                    }
                },
                "description": {
                    "value": ""
                },
                "rules": [],
                "slug": null,
                "source": {
                    "value": ""
                },
                "traits": {
                    "custom": "",
                    "rarity": {
                        "value": "common"
                    },
                    "value": [
                        "reach-15"
                    ]
                },
                "weaponType": {
                    "value": "melee"
                }
            },
            "effects": [],
            "flags": {},
            "img": "systems/pf2e/icons/default-icons/melee.svg",
            "name": "Bite",
            "sort": 100000,
            "type": "melee"
        },
        {
            "_id": "tTRbrpeMS0tQXfb1",
            "data": {
                "actionCategory": {
                    "value": "interaction"
                },
                "actionType": {
                    "value": "passive"
                },
                "actions": {
                    "value": null
                },
                "description": {
                    "value": "<p>@Localize[PF2E.NPC.Abilities.Glossary.Tremorsense]</p>"
                },
                "requirements": {
                    "value": ""
                },
                "rules": [],
                "slug": "tremorsense",
                "source": {
                    "value": ""
                },
                "traits": {
                    "custom": "",
                    "rarity": {
                        "value": "common"
                    },
                    "value": []
                },
                "trigger": {
                    "value": ""
                },
                "weapon": {
                    "value": ""
                }
            },
            "effects": [],
            "flags": {
                "core": {
                    "sourceId": "Compendium.pf2e.bestiary-ability-glossary-srd.j2wsK6IsW5yMW1jW"
                }
            },
            "img": "systems/pf2e/icons/actions/Passive.webp",
            "name": "Tremorsense (Imprecise) 60 feet",
            "sort": 200000,
            "type": "action"
        },
        {
            "_id": "9uDPkhvDHQvs18xG",
            "data": {
                "actionCategory": {
                    "value": "defensive"
                },
                "actionType": {
                    "value": "passive"
                },
                "actions": {
                    "value": null
                },
                "description": {
                    "value": "<p>When killed, an empress bore worm violently expels the young it carries. These young erupt as a @Compendium[pf2e.pathfinder-bestiary-3.Lava Worm Swarm]{Lava Worm Swarm} in the empress bore worm's space.</p>\n<p>In addition, every creature within 20 feet takes [[/r {5d10}[fire]]]{5d10 fire damage} (<span data-pf2-check=\"reflex\" data-pf2-dc=\"25\" data-pf2-traits=\"damaging-effect\" data-pf2-label=\"Viviparous Birth DC\" data-pf2-show-dc=\"gm\">basic Reflex</span> save) from the splatter of fiery viscera.</p>"
                },
                "requirements": {
                    "value": ""
                },
                "rules": [],
                "slug": null,
                "source": {
                    "value": ""
                },
                "traits": {
                    "custom": "",
                    "rarity": {
                        "value": "common"
                    },
                    "value": []
                },
                "trigger": {
                    "value": ""
                },
                "weapon": {
                    "value": ""
                }
            },
            "effects": [],
            "flags": {},
            "img": "systems/pf2e/icons/actions/Passive.webp",
            "name": "Viviparous Birth",
            "sort": 300000,
            "type": "action"
        },
        {
            "_id": "GFFvPm7EbrqTqDNh",
            "data": {
                "actionCategory": {
                    "value": "offensive"
                },
                "actionType": {
                    "value": "passive"
                },
                "actions": {
                    "value": null
                },
                "description": {
                    "value": "<p>An empress bore worm can leave a tunnel behind itself when it burrows, and it usually does.</p>"
                },
                "requirements": {
                    "value": ""
                },
                "rules": [],
                "slug": null,
                "source": {
                    "value": ""
                },
                "traits": {
                    "custom": "",
                    "rarity": {
                        "value": "common"
                    },
                    "value": []
                },
                "trigger": {
                    "value": ""
                },
                "weapon": {
                    "value": ""
                }
            },
            "effects": [],
            "flags": {},
            "img": "systems/pf2e/icons/actions/Passive.webp",
            "name": "Borer",
            "sort": 400000,
            "type": "action"
        },
        {
            "_id": "8jAtUvdgKdyaNzHN",
            "data": {
                "actionCategory": {
                    "value": "offensive"
                },
                "actionType": {
                    "value": "action"
                },
                "actions": {
                    "value": 1
                },
                "description": {
                    "value": "<p>The empress bore worm Strides, leaving behind dribbles of lava in every square that it passes through.</p>\n<p>A creature that enters or begins its turn in such a square takes [[/r {3d6}[fire]]]{3d6 fire damage} (<span data-pf2-check=\"fortitude\" data-pf2-dc=\"22\" data-pf2-traits=\"damaging-effect\" data-pf2-label=\"Fiery Wake DC\" data-pf2-show-dc=\"gm\">basic Fortitude</span> save). The lava becomes inert after 1 minute.</p>"
                },
                "requirements": {
                    "value": ""
                },
                "rules": [],
                "slug": null,
                "source": {
                    "value": ""
                },
                "traits": {
                    "custom": "",
                    "rarity": {
                        "value": "common"
                    },
                    "value": []
                },
                "trigger": {
                    "value": ""
                },
                "weapon": {
                    "value": ""
                }
            },
            "effects": [],
            "flags": {},
            "img": "systems/pf2e/icons/actions/OneAction.webp",
            "name": "Fiery Wake",
            "sort": 500000,
            "type": "action"
        },
        {
            "_id": "HBWRwsQLwNl5P9GZ",
            "data": {
                "actionCategory": {
                    "value": "offensive"
                },
                "actionType": {
                    "value": "passive"
                },
                "actions": {
                    "value": null
                },
                "description": {
                    "value": "<p>The bite of an empress bore worm causes excruciating pain. The target must succeed at a <span data-pf2-check=\"fortitude\" data-pf2-dc=\"25\" data-pf2-label=\"Painful Bite DC\" data-pf2-show-dc=\"gm\">Fortitude</span> save or become @Compendium[pf2e.conditionitems.Sickened]{Sickened 1} from the pain (@Compendium[pf2e.conditionitems.Sickened]{Sickened 2} on a critical failure).</p>"
                },
                "requirements": {
                    "value": ""
                },
                "rules": [],
                "slug": null,
                "source": {
                    "value": ""
                },
                "traits": {
                    "custom": "",
                    "rarity": {
                        "value": "common"
                    },
                    "value": []
                },
                "trigger": {
                    "value": ""
                },
                "weapon": {
                    "value": ""
                }
            },
            "effects": [],
            "flags": {},
            "img": "systems/pf2e/icons/actions/Passive.webp",
            "name": "Painful Bite",
            "sort": 600000,
            "type": "action"
        },
        {
            "_id": "3wr5RpC1LwSWS50U",
            "data": {
                "description": {
                    "value": ""
                },
                "item": {
                    "value": 0
                },
                "mod": {
                    "value": 17
                },
                "proficient": {
                    "value": 0
                },
                "rules": [],
                "slug": null,
                "source": {
                    "value": ""
                },
                "traits": {
                    "custom": "",
                    "rarity": {
                        "value": "common"
                    },
                    "value": []
                }
            },
            "effects": [],
            "flags": {},
            "img": "systems/pf2e/icons/default-icons/lore.svg",
            "name": "Athletics",
            "sort": 700000,
            "type": "lore"
        },
        {
            "_id": "wR5ymvtH8uGcOkzd",
            "data": {
                "description": {
                    "value": ""
                },
                "item": {
                    "value": 0
                },
                "mod": {
                    "value": 14
                },
                "proficient": {
                    "value": 0
                },
                "rules": [],
                "slug": null,
                "source": {
                    "value": ""
                },
                "traits": {
                    "custom": "",
                    "rarity": {
                        "value": "common"
                    },
                    "value": []
                }
            },
            "effects": [],
            "flags": {},
            "img": "systems/pf2e/icons/default-icons/lore.svg",
            "name": "Stealth",
            "sort": 800000,
            "type": "lore"
        }
    ],
    "name": "Empress Lava Worm",
    "token": {
        "disposition": -1,
        "height": 3,
        "img": "systems/pf2e/icons/default-icons/npc.svg",
        "name": "Empress Lava Worm",
        "width": 3
    },
    "type": "npc"
}
