{
    "_id": "haMVGGDY3mLuKy9s",
    "data": {
        "actionCategory": {
            "value": ""
        },
        "actionType": {
            "value": "action"
        },
        "actions": {
            "value": null
        },
        "description": {
            "value": "<p data-visibility=\"gm\"><strong>Saving Throw</strong> <span data-pf2-check=\"fortitude\" data-pf2-dc=\"\" data-pf2-traits=\"disease\" data-pf2-label=\"Bubonic Plague DC\" data-pf2-show-dc=\"gm\">Fortitude</span> (use a high DC for the vrykolakas's level);</p>\n<p><strong>Onset</strong> 1 day;</p>\n<div data-visibility=\"gm\"><hr />\n<p><strong>Stage 1</strong> @Compendium[pf2e.conditionitems.Fatigued]{Fatigued} (1 day);</p>\n<p><strong>Stage 2</strong> @Compendium[pf2e.conditionitems.Enfeebled]{Enfeebled 2} and fatigued (1 day);</p>\n<p><strong>Stage 3</strong> @Compendium[pf2e.conditionitems.Enfeebled]{Enfeebled 3}, fatigued, and takes [[/r {1d6}[persistent,bleed]]] @Compendium[pf2e.conditionitems.Persistent Damage]{Persistent Bleed Damage} every [[/br {1d20} #minutes]]{1d20 minutes} (1 day)</p>\n</div>"
        },
        "requirements": {
            "value": ""
        },
        "rules": [],
        "source": {
            "value": "Pathfinder Bestiary 2"
        },
        "traits": {
            "custom": "",
            "rarity": {
                "value": "common"
            },
            "value": []
        },
        "trigger": {
            "value": ""
        }
    },
    "effects": [],
    "flags": {},
    "img": "systems/pf2e/icons/actions/OneAction.webp",
    "name": "(Vampire, Vrykolakas Master) Bubonic Plague",
    "type": "action"
}
