{
    "_id": "OJH8y8LqmgbkN8ce",
    "data": {
        "abilities": {
            "cha": {
                "mod": -1
            },
            "con": {
                "mod": 6
            },
            "dex": {
                "mod": 1
            },
            "int": {
                "mod": -4
            },
            "str": {
                "mod": 6
            },
            "wis": {
                "mod": 1
            }
        },
        "attributes": {
            "ac": {
                "details": "",
                "value": 27
            },
            "allSaves": {
                "value": ""
            },
            "hp": {
                "details": "",
                "max": 135,
                "temp": 0,
                "value": 135
            },
            "initiative": {
                "ability": "perception"
            },
            "perception": {
                "value": 16
            },
            "shield": {
                "ac": 0,
                "brokenThreshold": 0,
                "hardness": 0,
                "max": 0,
                "value": 0
            },
            "speed": {
                "otherSpeeds": [],
                "value": "35"
            }
        },
        "details": {
            "alignment": {
                "value": "NE"
            },
            "blurb": "",
            "creatureType": "Undead",
            "level": {
                "value": 9
            },
            "privateNotes": "",
            "publicNotes": "",
            "source": {
                "value": "Pathfinder #147: Tomorrow Must Burn"
            }
        },
        "resources": {},
        "saves": {
            "fortitude": {
                "saveDetail": "",
                "value": 19
            },
            "reflex": {
                "saveDetail": "",
                "value": 14
            },
            "will": {
                "saveDetail": "",
                "value": 16
            }
        },
        "traits": {
            "ci": [],
            "di": {
                "custom": "",
                "value": [
                    "death effects",
                    "disease",
                    "paralyzed",
                    "poison",
                    "unconscious"
                ]
            },
            "dr": [],
            "dv": [],
            "languages": {
                "custom": "",
                "selected": [],
                "value": []
            },
            "rarity": {
                "value": "rare"
            },
            "senses": {
                "value": "Darkvision, scent (imprecise) 30 feet"
            },
            "size": {
                "value": "lg"
            },
            "traits": {
                "custom": "",
                "value": [
                    "ghoul",
                    "undead"
                ]
            }
        }
    },
    "effects": [],
    "flags": {},
    "img": "systems/pf2e/icons/default-icons/npc.svg",
    "items": [
        {
            "_id": "LT73ykCcsBulHrcy",
            "data": {
                "attack": {
                    "value": ""
                },
                "attackEffects": {
                    "value": [
                        "ghast-fever",
                        "paralysis"
                    ]
                },
                "bonus": {
                    "value": 20
                },
                "damageRolls": {
                    "ss2emgbz4dnyjhaeej22": {
                        "damage": "2d10+9",
                        "damageType": "piercing"
                    }
                },
                "description": {
                    "value": ""
                },
                "rules": [],
                "slug": null,
                "source": {
                    "value": ""
                },
                "traits": {
                    "custom": "",
                    "rarity": {
                        "value": "common"
                    },
                    "value": []
                },
                "weaponType": {
                    "value": "melee"
                }
            },
            "effects": [],
            "flags": {},
            "img": "systems/pf2e/icons/default-icons/melee.svg",
            "name": "Jaws",
            "sort": 100000,
            "type": "melee"
        },
        {
            "_id": "pvaF5cf0XkH3cCbK",
            "data": {
                "attack": {
                    "value": ""
                },
                "attackEffects": {
                    "value": [
                        "grab",
                        "paralysis"
                    ]
                },
                "bonus": {
                    "value": 20
                },
                "damageRolls": {
                    "ke8cn35zaiw1tkjjaccn": {
                        "damage": "2d8+9",
                        "damageType": "slashing"
                    }
                },
                "description": {
                    "value": ""
                },
                "rules": [],
                "slug": null,
                "source": {
                    "value": ""
                },
                "traits": {
                    "custom": "",
                    "rarity": {
                        "value": "common"
                    },
                    "value": [
                        "agile"
                    ]
                },
                "weaponType": {
                    "value": "melee"
                }
            },
            "effects": [],
            "flags": {},
            "img": "systems/pf2e/icons/default-icons/melee.svg",
            "name": "Claw",
            "sort": 200000,
            "type": "melee"
        },
        {
            "_id": "IH7wKxaXZj1UzfbX",
            "data": {
                "actionCategory": {
                    "value": "interaction"
                },
                "actionType": {
                    "value": "passive"
                },
                "actions": {
                    "value": null
                },
                "description": {
                    "value": "<p>10 feet. A creature entering the aura or starting its turn in the aura must succeed at a <span data-pf2-check=\"fortitude\" data-pf2-dc=\"26\" data-pf2-traits=\"aura,olfactory\" data-pf2-label=\"Stench DC\" data-pf2-show-dc=\"gm\">Fortitude</span> save or become sickened 1 (plus, on a critical failure, slowed 1 as long as it's sickened). While within the aura, the creature takes a -2 circumstance penalty to saves against disease and to recover from the sickened condition. A creature that succeeds at its save is temporarily immune for 1 minute.</p>"
                },
                "requirements": {
                    "value": ""
                },
                "rules": [],
                "slug": null,
                "source": {
                    "value": ""
                },
                "traits": {
                    "custom": "",
                    "rarity": {
                        "value": "common"
                    },
                    "value": [
                        "aura",
                        "olfactory"
                    ]
                },
                "trigger": {
                    "value": ""
                },
                "weapon": {
                    "value": ""
                }
            },
            "effects": [],
            "flags": {},
            "img": "systems/pf2e/icons/actions/Passive.webp",
            "name": "Stench",
            "sort": 300000,
            "type": "action"
        },
        {
            "_id": "trOnsGBD8eQAZ1hT",
            "data": {
                "actionCategory": {
                    "value": "defensive"
                },
                "actionType": {
                    "value": "passive"
                },
                "actions": {
                    "value": null
                },
                "description": {
                    "value": "<p>10 feet. A creature entering the aura or starting its turn in the aura must succeed at a <span data-pf2-check=\"fortitude\" data-pf2-dc=\"26\" data-pf2-traits=\"aura,olfactory\" data-pf2-label=\"Stench DC\" data-pf2-show-dc=\"gm\">Fortitude</span> save or become sickened 1 (plus, on a critical failure, slowed 1 as long as it's sickened). While within the aura, the creature takes a -2 circumstance penalty to saves against disease and to recover from the sickened condition. A creature that succeeds at its save is temporarily immune for 1 minute.</p>"
                },
                "requirements": {
                    "value": ""
                },
                "rules": [],
                "slug": null,
                "source": {
                    "value": ""
                },
                "traits": {
                    "custom": "",
                    "rarity": {
                        "value": "common"
                    },
                    "value": [
                        "aura",
                        "olfactory"
                    ]
                },
                "trigger": {
                    "value": ""
                },
                "weapon": {
                    "value": ""
                }
            },
            "effects": [],
            "flags": {},
            "img": "systems/pf2e/icons/actions/Passive.webp",
            "name": "Stench",
            "sort": 400000,
            "type": "action"
        },
        {
            "_id": "BJPGlAhTO9hVQNK3",
            "data": {
                "actionCategory": {
                    "value": "offensive"
                },
                "actionType": {
                    "value": "action"
                },
                "actions": {
                    "value": 1
                },
                "description": {
                    "value": "<p><strong>Requirements</strong> The ghastly bear is adjacent to the corpse of a creature that died within the last hour. <strong>Effect</strong> The ghastly bear devours a chunk of the corpse and regains 6d6 Hit Points. It can regain Hit Points from any given corpse only once.</p>"
                },
                "requirements": {
                    "value": ""
                },
                "rules": [],
                "slug": null,
                "source": {
                    "value": ""
                },
                "traits": {
                    "custom": "",
                    "rarity": {
                        "value": "common"
                    },
                    "value": [
                        "manipulate"
                    ]
                },
                "trigger": {
                    "value": ""
                },
                "weapon": {
                    "value": ""
                }
            },
            "effects": [],
            "flags": {},
            "img": "systems/pf2e/icons/actions/OneAction.webp",
            "name": "Consume Flesh",
            "sort": 500000,
            "type": "action"
        },
        {
            "_id": "es2w2fpml6iaV2mI",
            "data": {
                "actionCategory": {
                    "value": "offensive"
                },
                "actionType": {
                    "value": "passive"
                },
                "actions": {
                    "value": null
                },
                "description": {
                    "value": "<p><strong>Saving Throw</strong> <span data-pf2-check=\"fortitude\" data-pf2-dc=\"26\" data-pf2-traits=\"disease\" data-pf2-label=\"Ghast Fever DC\" data-pf2-show-dc=\"gm\">Fortitude</span>; <strong>Stage 1</strong> carrier with no ill effect (1 day); <strong>Stage 2</strong> [[/r {3d8}[negative]]]{3d8 negative damage} and regains half as many Hit Points from all healing (1 day); <strong>Stage 3</strong> as stage 2 (1 day); <strong>Stage 4</strong> [[/r {3d8}[negative]]]{3d8 negative damage} and gains no benefit from healing (1 day); <strong>Stage 5</strong> as stage 4 (1 day); <strong>Stage 6</strong> dead, and rises as a ghast the next midnight</p>"
                },
                "requirements": {
                    "value": ""
                },
                "rules": [],
                "slug": null,
                "source": {
                    "value": ""
                },
                "traits": {
                    "custom": "",
                    "rarity": {
                        "value": "common"
                    },
                    "value": [
                        "disease"
                    ]
                },
                "trigger": {
                    "value": ""
                },
                "weapon": {
                    "value": ""
                }
            },
            "effects": [],
            "flags": {},
            "img": "systems/pf2e/icons/actions/Passive.webp",
            "name": "Ghast Fever",
            "sort": 600000,
            "type": "action"
        },
        {
            "_id": "k41Mo8B8rO9cvre9",
            "data": {
                "actionCategory": {
                    "value": "offensive"
                },
                "actionType": {
                    "value": "passive"
                },
                "actions": {
                    "value": null
                },
                "description": {
                    "value": "<p>A ghastly bear gains a [[/r +4 # circumstance bonus to damage]] circumstance bonus to damage rolls against creatures it has grabbed.</p>"
                },
                "requirements": {
                    "value": ""
                },
                "rules": [],
                "slug": null,
                "source": {
                    "value": ""
                },
                "traits": {
                    "custom": "",
                    "rarity": {
                        "value": "common"
                    },
                    "value": []
                },
                "trigger": {
                    "value": ""
                },
                "weapon": {
                    "value": ""
                }
            },
            "effects": [],
            "flags": {},
            "img": "systems/pf2e/icons/actions/Passive.webp",
            "name": "Mauler",
            "sort": 700000,
            "type": "action"
        },
        {
            "_id": "wCeWPpQgF4CbObes",
            "data": {
                "actionCategory": {
                    "value": "offensive"
                },
                "actionType": {
                    "value": "passive"
                },
                "actions": {
                    "value": null
                },
                "description": {
                    "value": "<p>Any living creature hit by a ghastly bear's attack must succeed at a <span data-pf2-check=\"fortitude\" data-pf2-dc=\"26\" data-pf2-traits=\"incapacitation,occult,necromancy\" data-pf2-label=\"Paralysis DC\" data-pf2-show-dc=\"gm\">Fortitude</span> save or become paralyzed. It can attempt a new save at the end of each of its turns, and the DC cumulatively decreases by 1 on each such save.</p>"
                },
                "requirements": {
                    "value": ""
                },
                "rules": [],
                "slug": null,
                "source": {
                    "value": ""
                },
                "traits": {
                    "custom": "",
                    "rarity": {
                        "value": "common"
                    },
                    "value": [
                        "incapacitation",
                        "occult",
                        "necromancy"
                    ]
                },
                "trigger": {
                    "value": ""
                },
                "weapon": {
                    "value": ""
                }
            },
            "effects": [],
            "flags": {},
            "img": "systems/pf2e/icons/actions/Passive.webp",
            "name": "Paralysis",
            "sort": 800000,
            "type": "action"
        },
        {
            "_id": "irrtFZC0kWDot7A8",
            "data": {
                "actionCategory": {
                    "value": "offensive"
                },
                "actionType": {
                    "value": "action"
                },
                "actions": {
                    "value": 1
                },
                "description": {
                    "value": "<p><strong>Requirements</strong> The monster's last action was a success with a Strike that lists Grab in its damage entry, or it has a creature grabbed using this action. <strong>Effect</strong> The monster automatically Grabs the target until the end of the monster's next turn. The creature is grabbed by whichever body part the monster attacked with, and that body part can't be used to Strike creatures until the grab is ended. Using Grab extends the duration of the monster's Grab until the end of its next turn for all creatures grabbed by it. A grabbed creature can use the Escape action to get out of the grab, and the Grab ends for a grabbed creatures if the monster moves away from it.</p>"
                },
                "requirements": {
                    "value": ""
                },
                "rules": [],
                "slug": null,
                "source": {
                    "value": ""
                },
                "traits": {
                    "custom": "",
                    "rarity": {
                        "value": "common"
                    },
                    "value": []
                },
                "trigger": {
                    "value": ""
                },
                "weapon": {
                    "value": ""
                }
            },
            "effects": [],
            "flags": {},
            "img": "systems/pf2e/icons/actions/OneAction.webp",
            "name": "Grab",
            "sort": 900000,
            "type": "action"
        },
        {
            "_id": "ASrcA46NYY0HQXZd",
            "data": {
                "description": {
                    "value": ""
                },
                "item": {
                    "value": 0
                },
                "mod": {
                    "value": 19
                },
                "proficient": {
                    "value": 0
                },
                "rules": [],
                "slug": null,
                "source": {
                    "value": ""
                },
                "traits": {
                    "custom": "",
                    "rarity": {
                        "value": "common"
                    },
                    "value": []
                }
            },
            "effects": [],
            "flags": {},
            "img": "systems/pf2e/icons/default-icons/lore.svg",
            "name": "Athletics",
            "sort": 1000000,
            "type": "lore"
        },
        {
            "_id": "D2allG9jfp0wKsor",
            "data": {
                "description": {
                    "value": ""
                },
                "item": {
                    "value": 0
                },
                "mod": {
                    "value": 14
                },
                "proficient": {
                    "value": 0
                },
                "rules": [],
                "slug": null,
                "source": {
                    "value": ""
                },
                "traits": {
                    "custom": "",
                    "rarity": {
                        "value": "common"
                    },
                    "value": []
                }
            },
            "effects": [],
            "flags": {},
            "img": "systems/pf2e/icons/default-icons/lore.svg",
            "name": "Survival",
            "sort": 1100000,
            "type": "lore"
        }
    ],
    "name": "Ghastly Bears",
    "token": {
        "disposition": -1,
        "height": 2,
        "img": "systems/pf2e/icons/default-icons/npc.svg",
        "name": "Ghastly Bears",
        "width": 2
    },
    "type": "npc"
}
