{
    "_id": "wcqXFhggTcAutBk6",
    "content": "<table class=\"pf2-table\">\n<thead>\n<tr>\n<th>\n<h3><strong>Name</strong></h3>\n</th>\n<th>\n<h3><strong>Crit Effect</strong></h3>\n</th>\n<th>\n<h3><strong>Type</strong></h3>\n</th>\n</tr>\n</thead>\n<tbody>\n<tr>\n<td>Catch your Breath</td>\n<td>You are slowed 2 until the end of your next turn.</td>\n<td>\n<h3>Melee</h3>\n</td>\n</tr>\n<tr>\n<td>Wrong Weapon</td>\n<td>If you made a thrown attack, you instead throw an object from your gear (determined randomly by the GM).</td>\n<td>\n<h3>Ranged</h3>\n</td>\n</tr>\n<tr>\n<td>Got too Close</td>\n<td>This attack grants and triggers a Grapple or Grab as a reaction by your enemy.</td>\n<td>\n<h3>Unarmed</h3>\n</td>\n</tr>\n<tr>\n<td>You made 'em Stronger</td>\n<td>The target gains a +2 status bonus to attack rolls until the end of its next turn.</td>\n<td>\n<h3>Spell</h3>\n</td>\n</tr>\n</tbody>\n</table>\n<h3 style=\"text-align: left;\"> </h3>",
    "flags": {},
    "name": "Critical Fumble Deck #29",
    "permission": {
        "default": 0
    }
}
