{
    "_id": "fRlvmul3LbLo2xvR",
    "data": {
        "description": {
            "value": "<p>You position your weapon defensively, gaining a +1 circumstance bonus to AC until the start of your next turn.</p>"
        },
        "duration": {
            "expiry": "turn-start",
            "sustained": false,
            "unit": "rounds",
            "value": 1
        },
        "level": {
            "value": 1
        },
        "rules": [
            {
                "key": "FlatModifier",
                "label": "Parry",
                "selector": "ac",
                "type": "circumstance",
                "value": 1
            }
        ],
        "source": {
            "value": ""
        },
        "start": {
            "initiative": null,
            "value": 0
        },
        "target": null,
        "tokenIcon": {
            "show": true
        },
        "traits": {
            "custom": "",
            "rarity": {
                "value": "common"
            },
            "value": []
        }
    },
    "effects": [],
    "flags": {},
    "img": "systems/pf2e/icons/equipment/weapons/main-gauche.webp",
    "name": "Effect: Parry",
    "type": "effect"
}
