{
    "_id": "vSUz97Y29l1O50bC",
    "content": "<h1>Count Ranalc (The Traitor) [CN]</h1><p>Once the lord of darkness and of the chaos of creation, Count Ranalc was cast out long ago by the other Eldest and titled \"the Traitor,\" though the Eldest are not forthcoming about what heinous treachery Ranalc committed, and many among his worshippers claim that he was the one who was betrayed. In his new home in a remote corner of the Shadow Plane, Ranalc embraced his banishment and became the patron of exiles, shadows, betrayal, and the betrayed. Ranalc had long held a fascination with the world of Golarion, and he was alternately both friend and foil to the powerful archwizard Nex. On the day Nex besieged the city of Absalom with shadowy beings-beings certainly drawn from Ranalc's domain-the Eldest vanished from reality. Although he continues to grant spells to his devout worshippers, Ranalc has otherwise wholly disappeared. Theories about his disappearance abound, although they are as obscure and as self-contradictory as the enigmatic Eldest ever was.</p><p><strong>Edicts</strong> Work in shadows, hide your nature and motives, plot betrayals or revenge for betrayals</p><p><strong>Anathema</strong> Ask for forgiveness, create permanent or long-lasting sources of light</p><p><strong>Areas of Concern</strong> exiles, shadows, betrayal, and the betrayed</p><p><strong>Follower Alignments</strong> CG, N, CN, CE</span></p><h2>Devotee Benefits</h2><div><div><strong>Divine Ability</strong> Dexterity or Charisma</div><div><strong>Divine Font</strong> harm or heal</div><div><strong>Divine Skill</strong> Stealth</div><div><strong>Favored Weapon</strong> rapier</div><div><strong>Domains</strong> confidence, darkness, sorrow, travel</div><div><strong>Cleric Spells</strong> 1st: penumbral shroud, 4th: private sanctum, 5th: shadow walk</div></div>",
    "flags": {},
    "name": "Count Ranalc",
    "permission": {
        "default": 0
    }
}
