{
    "_id": "r5vooG7NfvA9prJK",
    "content": "<h1>Kurgess (The Strong Man) [NG]</h1><p></span>Once a mortal farm boy from Taldor who had superhuman strength from youth, Kurgess's selfless sacrifice on the field of competition heralded his rise to godhood. Known as the Strong Man, Kurgess stands as both champion and shining example to those who seek athletic achievement and to give their all in competition, regardless of whether they are victorious or not.</p><p><strong>Edicts</strong> compete to your full potential, claim victory or accept defeat with grace, seek always to better yourself, encourage others to strive toward their own potential for greatness</p><p><strong>Anathema</strong> cheat at honorable contests, dishonor those who have lost or failed (including defeated or slain enemies), engage in reckless or needless destruction or bloodshed</p><p><strong>Areas of Concern</strong> healthy competition, sport, and physical development</p><p><strong>Follower Alignments</strong> LG, NG, CG, N</span></p><p></span></p><h2>Devotee Benefits</h2><div><div><strong>Divine Ability</strong> Strength or Constitution</div><div><strong>Divine Font</strong> heal</div><div><strong>Divine Skill</strong> Athletics</div><div><strong>Favored Weapon</strong> javelin</div><div><strong>Domains</strong> ambition, might, truth, zeal</div><div><strong>Cleric Spells</strong> 1st: ant haul, 2nd: enlarge, 3rd: haste</div></div><h2>Divine Intercession</h2><p>The Strong Man's gifts reflect his mastery of might.</p><p><strong>Minor Boon</strong>: The Strong Man blesses you with a measure of his strength. Increase your maximum and encumbered Bulk limits by 2.</p><p><strong>Moderate Boon</strong>: You fear no exertion. You can employ exploration tactics normally while fatigued.</p><p><strong>Major Boon</strong>: You possess a true champion's might. When you roll a critical failure on an Athletics check, you get a failure instead, and when you roll a success, you instead get a critical success.</p><p><strong>Minor Curse</strong>: Difficulty lifting burdens is a sign of divine disapproval. Your maximum and encumbered Bulk limits decrease by 2.</p><p><strong>Moderate Curse</strong>: Kurgess's displeasure breaks your competitive edge, causing you to fail at the cusp of success. If your check result exactly equals the DC, you fail instead of succeeding.</p><p><strong>Major Curse</strong>: The wrath of Kurgess withers you almost to nothing. You are permanently drained 2 and enfeebled 4.</span></p>",
    "flags": {},
    "name": "Kurgess",
    "permission": {
        "default": 0
    }
}
