{
    "_id": "9blxcDLIRPWenK5f",
    "content": "<p><strong>Deities</strong> @Compendium[pf2e.deities.Apollyon]{Apollyon}, @Compendium[pf2e.deities.Cyth-V'sug]{Cyth-V'sug}, @Compendium[pf2e.deities.Ghlaunder]{Ghlaunder}, @Compendium[pf2e.deities.Lady Nanbyo]{Lady Nanbyo}</p><p><strong>Domain Spell</strong> @Compendium[pf2e.spells-srd.Divine Plagues]{Divine Plagues}; <strong>Advanced Domain Spell</strong> @Compendium[pf2e.spells-srd.Foul Miasma]{Foul Miasma}</p><p><span id=\"ctl00_MainContent_DetailedOutput\">You wield disease and pestilence like a weapon.</span></p><p></p>",
    "flags": {},
    "name": "Plague Domain",
    "permission": {
        "default": 0
    }
}
