{
    "_id": "eCWQU16hRLfN1KaX",
    "data": {
        "actionCategory": {
            "value": ""
        },
        "actionType": {
            "value": "passive"
        },
        "actions": {
            "value": null
        },
        "description": {
            "value": "<p>Over your extensive lifespan, you've studied many languages. During your daily preparations, you can recede into old memories to become fluent in one common language or one other language you have access to. You know this language until you prepare again. Since this knowledge is temporary, you can't use it as a prerequisite for a permanent character option.</p>"
        },
        "featType": {
            "value": "ancestry"
        },
        "level": {
            "value": 1
        },
        "prerequisites": {
            "value": [
                {
                    "value": "at least 100 years old"
                }
            ]
        },
        "rules": [],
        "source": {
            "value": "Pathfinder Advanced Player's Guide"
        },
        "traits": {
            "custom": "",
            "rarity": {
                "value": "common"
            },
            "value": [
                "elf"
            ]
        }
    },
    "effects": [],
    "flags": {},
    "img": "systems/pf2e/icons/features/feats/feats.webp",
    "name": "Ancestral Linguistics",
    "type": "feat"
}
