{
    "_id": "vxA0VRN10OwUkGAr",
    "data": {
        "actionCategory": {
            "value": ""
        },
        "actionType": {
            "value": "action"
        },
        "actions": {
            "value": 1
        },
        "description": {
            "value": "<p>The harm you deal with your corrupting touch saps the strength from your enemy's body.</p>\n<p>If your next action is to cast <em>@Compendium[pf2e.spells-srd.Touch of Corruption]{Touch of Corruption}</em> on a living creature, the target is also @Compendium[pf2e.conditionitems.Enfeebled]{Enfeebled 1} for 1 minute if it fails its save (enfeebled 2 if it critically fails).</p>"
        },
        "featType": {
            "value": "class"
        },
        "level": {
            "value": 4
        },
        "location": "",
        "prerequisites": {
            "value": [
                {
                    "value": "devotion spell (touch of corruption)"
                }
            ]
        },
        "rules": [],
        "source": {
            "value": "Pathfinder Advanced Player's Guide"
        },
        "traits": {
            "custom": "",
            "rarity": {
                "value": "uncommon"
            },
            "value": [
                "champion",
                "concentrate",
                "metamagic"
            ]
        }
    },
    "effects": [],
    "flags": {},
    "img": "systems/pf2e/icons/features/feats/feats.webp",
    "name": "Cruelty",
    "type": "feat"
}
