{
    "_id": "cHOALlKY1XsCj3Fe",
    "data": {
        "actionCategory": {
            "value": ""
        },
        "actionType": {
            "value": "action"
        },
        "actions": {
            "value": 2
        },
        "description": {
            "value": "<p>You unleash your breath weapon without spending focus. This has the effects of your Dragon Breath sorcerer bloodline spell, though it deals [[/r 9d6]] damage instead of its usual damage, and you don't have to cast it or spend a Focus Point. You can't use Disciple's Breath again for [[/br 1d4 #rounds]]{1d4 rounds}.</p>"
        },
        "featType": {
            "value": "archetype"
        },
        "level": {
            "value": 16
        },
        "prerequisites": {
            "value": [
                {
                    "value": "Dragon Disciple Dedication"
                },
                {
                    "value": "dragon breath sorcerer bloodline spell"
                }
            ]
        },
        "rules": [],
        "source": {
            "value": "Pathfinder Advanced Player's Guide"
        },
        "traits": {
            "custom": "",
            "rarity": {
                "value": "common"
            },
            "value": [
                "archetype"
            ]
        }
    },
    "effects": [],
    "flags": {},
    "img": "systems/pf2e/icons/features/feats/feats.webp",
    "name": "Disciple's Breath",
    "type": "feat"
}
