{
    "_id": "d81PT3w97SkyAiXQ",
    "data": {
        "actionCategory": {
            "value": ""
        },
        "actionType": {
            "value": "passive"
        },
        "actions": {
            "value": null
        },
        "description": {
            "value": "<p>You gain access to the @Compendium[pf2e.equipment-srd.Lion Scythe]{Lion Scythe's} and @Compendium[pf2e.equipment-srd.Sun Sling]{Sun Sling's} critical specialization effects.</p>"
        },
        "featType": {
            "value": "archetype"
        },
        "level": {
            "value": 8
        },
        "location": "",
        "prerequisites": {
            "value": [
                {
                    "value": "Lion's Might"
                }
            ]
        },
        "rules": [
            {
                "key": "Note",
                "outcome": [
                    "criticalSuccess"
                ],
                "selector": "lion-scythe-damage",
                "text": "<p class='compact-text'>@Localize[PF2E.WeaponDescriptionKnife]</p>"
            },
            {
                "key": "Note",
                "outcome": [
                    "criticalSuccess"
                ],
                "selector": "sun-sling-damage",
                "text": "<p class='compact-text'>@Localize[PF2E.WeaponDescriptionSling]</p>"
            }
        ],
        "source": {
            "value": "Pathfinder #172: Secrets of the Temple-City"
        },
        "traits": {
            "custom": "",
            "rarity": {
                "value": "common"
            },
            "value": [
                "archetype"
            ]
        }
    },
    "effects": [],
    "flags": {},
    "img": "systems/pf2e/icons/features/feats/feats.webp",
    "name": "Lion's Fury",
    "type": "feat"
}
