{
    "_id": "n3eOMWQd4kdR3A0l",
    "data": {
        "actionCategory": {
            "value": ""
        },
        "actionType": {
            "value": "passive"
        },
        "actions": {
            "value": null
        },
        "description": {
            "value": "<p>Your animal companion grows up, becoming a mature animal companion. Increase its proficiency rank in Performance to expert instead of one of the three skill increases for mature. It gains the @Compendium[pf2e.actionspf2e.Mesmerizing Performance]{Mesmerizing Performance} advanced maneuver, rather than the normal advanced maneuver for its type.</p>"
        },
        "featType": {
            "value": "archetype"
        },
        "level": {
            "value": 6
        },
        "prerequisites": {
            "value": [
                {
                    "value": "Animal Trainer Dedication "
                }
            ]
        },
        "rules": [],
        "source": {
            "value": "Pathfinder #152: Legacy of the Lost God"
        },
        "traits": {
            "custom": "",
            "rarity": {
                "value": "common"
            },
            "value": [
                "archetype"
            ]
        }
    },
    "effects": [],
    "flags": {},
    "img": "systems/pf2e/icons/features/feats/feats.webp",
    "name": "Mature Trained Companion",
    "type": "feat"
}
