{
    "_id": "QnB5ArlO4wlRXQ2E",
    "data": {
        "actionCategory": {
            "value": ""
        },
        "actionType": {
            "value": "passive"
        },
        "actions": {
            "value": null
        },
        "description": {
            "value": "<p><strong>Access</strong> You are from Absalom.</p>\n<hr />\n<p>Your Pathfinder training has broadened your horizons and made you more flexible at various skills, since you never know when you might need an obscure skill to complete your mission. You become trained in one skill of your choice, or expert in a skill of your choice in which you were trained. You also become trained in Pathfinder Lore, or an expert if you were already trained. When using a skill untrained, your proficiency bonus is equal to your level instead of 0. You gain access to wayfinders.</p>\n<p><strong>Special</strong> You cannot select another dedication feat until you have gained two other feats from the Pathfinder Agent archetype.</p>"
        },
        "featType": {
            "value": "archetype"
        },
        "level": {
            "value": 2
        },
        "prerequisites": {
            "value": [
                {
                    "value": "member of the Pathfinder Society"
                }
            ]
        },
        "rules": [
            {
                "key": "FlatModifier",
                "selector": "skill-check",
                "type": "proficiency",
                "value": "@details.level.value"
            }
        ],
        "source": {
            "value": "Pathfinder Lost Omens: World Guide"
        },
        "traits": {
            "custom": "",
            "rarity": {
                "value": "uncommon"
            },
            "value": [
                "archetype",
                "dedication"
            ]
        }
    },
    "effects": [],
    "flags": {},
    "img": "systems/pf2e/icons/features/feats/feats.webp",
    "name": "Pathfinder Agent Dedication",
    "type": "feat"
}
