{
    "_id": "Wukrctjz2e8W4bbS",
    "data": {
        "actionCategory": {
            "value": ""
        },
        "actionType": {
            "value": "passive"
        },
        "actions": {
            "value": null
        },
        "description": {
            "value": "<p>You prepare to fire with an instinctive speed and muscle memory that go beyond your conscious thoughts. You're permanently @Compendium[pf2e.conditionitems.Quickened]{Quickened}. You can use your extra action only to Step or Interact to reload.</p>"
        },
        "featType": {
            "value": "class"
        },
        "level": {
            "value": 20
        },
        "location": "",
        "prerequisites": {
            "value": []
        },
        "rules": [],
        "source": {
            "value": ""
        },
        "traits": {
            "custom": "",
            "rarity": {
                "value": "common"
            },
            "value": [
                "gunslinger"
            ]
        }
    },
    "effects": [],
    "flags": {},
    "img": "systems/pf2e/icons/default-icons/feats.webp",
    "name": "Perfect Readiness",
    "type": "feat"
}
