{
    "_id": "QgNo1s6nVbKPU4St",
    "data": {
        "actionCategory": {
            "value": ""
        },
        "actionType": {
            "value": "passive"
        },
        "actions": {
            "value": null
        },
        "description": {
            "value": "<p>You have gone well past nine lives to survive danger with surprising regularity. You can use @Compendium[pf2e.feats-srd.Cat's Luck]{Cat's Luck} once per hour, rather than once per day.</p>"
        },
        "featType": {
            "value": "ancestry"
        },
        "level": {
            "value": 17
        },
        "location": "",
        "prerequisites": {
            "value": [
                {
                    "value": "Cat's Luck"
                }
            ]
        },
        "rules": [],
        "source": {
            "value": "Pathfinder Advanced Player's Guide"
        },
        "traits": {
            "custom": "",
            "rarity": {
                "value": "common"
            },
            "value": [
                "catfolk"
            ]
        }
    },
    "effects": [],
    "flags": {},
    "img": "systems/pf2e/icons/features/feats/feats.webp",
    "name": "Reliable Luck",
    "type": "feat"
}
