{
    "_id": "gmnx7e1g08bppbqt",
    "data": {
        "actionCategory": {
            "value": ""
        },
        "actionType": {
            "value": "passive"
        },
        "actions": {
            "value": null
        },
        "description": {
            "value": "<h2 class=\"title\">Sorcerer Spellcasting</h2>\n<p>Your bloodline provides you with incredible magical power. You can cast spells using the Cast a Spell activity, and you can supply material, somatic, and verbal components when casting spells. Because you're a sorcerer, you can usually replace material components with somatic components, so you don't need to use a spell component pouch.</p>\n<p>Each day, you can cast up to three 1st-level spells. You must know spells to cast them, and you learn them via the spell repertoire class feature. The number of spells you can cast each day is called your spell slots.</p>\n<p>As you increase in level as a sorcerer, your number of spells per day increases, as does the highest level of spells you can cast.</p>\n<p>Some of your spells require you to attempt a spell attack roll to see how effective they are, or have your enemies roll against your spell DC (typically by attempting a saving throw). Since your key ability is Charisma, your spell attack rolls and spell DCs use your Charisma modifier.</p>\n<h3 class=\"title\"><strong>Heightening Spells</strong></h3>\n<p>When you get spell slots of 2nd level and higher, you can fill those slots with stronger versions of lower-level spells. This increases the spell's level to match the spell slot. You must have a spell in your spell repertoire at the level you want to cast in order to heighten it to that level. Many spells have specific improvements when they are heightened to certain levels. The signature spells class feature lets you heighten certain spells freely.</p>\n<h3 class=\"title\"><strong>Cantrips</strong></h3>\n<p>A cantrip is a special type of spell that doesn't use spell slots. You can cast a cantrip at will, any number of times per day. A cantrip is always automatically heightened to half your level rounded up-this is usually equal to the highest level of spell you can cast as a sorcerer. For example, as a 1st-level sorcerer, your cantrips are 1st-level spells, and as a 5th-level sorcerer, your cantrips are 3rd-level spells.</p>\n<table class=\"pf2-table\">\n<thead>\n<tr>\n<th>Your Level</th>\n<th>Cantrips</th>\n<th>1st</th>\n<th>2nd</th>\n<th>3rd</th>\n<th>4th</th>\n<th>5th</th>\n<th>6th</th>\n<th>7th</th>\n<th>8th</th>\n<th>9th</th>\n<th>10th</th>\n</tr>\n</thead>\n<tbody>\n<tr>\n<td>1</td>\n<td>5</td>\n<td>3</td>\n<td>-</td>\n<td>-</td>\n<td>-</td>\n<td>-</td>\n<td>-</td>\n<td>-</td>\n<td>-</td>\n<td>-</td>\n<td>-</td>\n</tr>\n<tr>\n<td>2</td>\n<td>5</td>\n<td>4</td>\n<td>-</td>\n<td>-</td>\n<td>-</td>\n<td>-</td>\n<td>-</td>\n<td>-</td>\n<td>-</td>\n<td>-</td>\n<td>-</td>\n</tr>\n<tr>\n<td>3</td>\n<td>5</td>\n<td>4</td>\n<td>3</td>\n<td>-</td>\n<td>-</td>\n<td>-</td>\n<td>-</td>\n<td>-</td>\n<td>-</td>\n<td>-</td>\n<td>-</td>\n</tr>\n<tr>\n<td>4</td>\n<td>5</td>\n<td>4</td>\n<td>4</td>\n<td>-</td>\n<td>-</td>\n<td>-</td>\n<td>-</td>\n<td>-</td>\n<td>-</td>\n<td>-</td>\n<td>-</td>\n</tr>\n<tr>\n<td>5</td>\n<td>5</td>\n<td>4</td>\n<td>4</td>\n<td>3</td>\n<td>-</td>\n<td>-</td>\n<td>-</td>\n<td>-</td>\n<td>-</td>\n<td>-</td>\n<td>-</td>\n</tr>\n<tr>\n<td>6</td>\n<td>5</td>\n<td>4</td>\n<td>4</td>\n<td>4</td>\n<td>-</td>\n<td>-</td>\n<td>-</td>\n<td>-</td>\n<td>-</td>\n<td>-</td>\n<td>-</td>\n</tr>\n<tr>\n<td>7</td>\n<td>5</td>\n<td>4</td>\n<td>4</td>\n<td>4</td>\n<td>3</td>\n<td>-</td>\n<td>-</td>\n<td>-</td>\n<td>-</td>\n<td>-</td>\n<td>-</td>\n</tr>\n<tr>\n<td>8</td>\n<td>5</td>\n<td>4</td>\n<td>4</td>\n<td>4</td>\n<td>4</td>\n<td>-</td>\n<td>-</td>\n<td>-</td>\n<td>-</td>\n<td>-</td>\n<td>-</td>\n</tr>\n<tr>\n<td>9</td>\n<td>5</td>\n<td>4</td>\n<td>4</td>\n<td>4</td>\n<td>4</td>\n<td>3</td>\n<td>-</td>\n<td>-</td>\n<td>-</td>\n<td>-</td>\n<td>-</td>\n</tr>\n<tr>\n<td>10</td>\n<td>5</td>\n<td>4</td>\n<td>4</td>\n<td>4</td>\n<td>4</td>\n<td>4</td>\n<td>-</td>\n<td>-</td>\n<td>-</td>\n<td>-</td>\n<td>-</td>\n</tr>\n<tr>\n<td>11</td>\n<td>5</td>\n<td>4</td>\n<td>4</td>\n<td>4</td>\n<td>4</td>\n<td>4</td>\n<td>3</td>\n<td>-</td>\n<td>-</td>\n<td>-</td>\n<td>-</td>\n</tr>\n<tr>\n<td>12</td>\n<td>5</td>\n<td>4</td>\n<td>4</td>\n<td>4</td>\n<td>4</td>\n<td>4</td>\n<td>4</td>\n<td>-</td>\n<td>-</td>\n<td>-</td>\n<td>-</td>\n</tr>\n<tr>\n<td>13</td>\n<td>5</td>\n<td>4</td>\n<td>4</td>\n<td>4</td>\n<td>4</td>\n<td>4</td>\n<td>4</td>\n<td>3</td>\n<td>-</td>\n<td>-</td>\n<td>-</td>\n</tr>\n<tr>\n<td>14</td>\n<td>5</td>\n<td>4</td>\n<td>4</td>\n<td>4</td>\n<td>4</td>\n<td>4</td>\n<td>4</td>\n<td>4</td>\n<td>-</td>\n<td>-</td>\n<td>-</td>\n</tr>\n<tr>\n<td>15</td>\n<td>5</td>\n<td>4</td>\n<td>4</td>\n<td>4</td>\n<td>4</td>\n<td>4</td>\n<td>4</td>\n<td>4</td>\n<td>3</td>\n<td>-</td>\n<td>-</td>\n</tr>\n<tr>\n<td>16</td>\n<td>5</td>\n<td>4</td>\n<td>4</td>\n<td>4</td>\n<td>4</td>\n<td>4</td>\n<td>4</td>\n<td>4</td>\n<td>4</td>\n<td>-</td>\n<td>-</td>\n</tr>\n<tr>\n<td>17</td>\n<td>5</td>\n<td>4</td>\n<td>4</td>\n<td>4</td>\n<td>4</td>\n<td>4</td>\n<td>4</td>\n<td>4</td>\n<td>4</td>\n<td>3</td>\n<td>-</td>\n</tr>\n<tr>\n<td>18</td>\n<td>5</td>\n<td>4</td>\n<td>4</td>\n<td>4</td>\n<td>4</td>\n<td>4</td>\n<td>4</td>\n<td>4</td>\n<td>4</td>\n<td>4</td>\n<td>-</td>\n</tr>\n<tr>\n<td>19</td>\n<td>5</td>\n<td>4</td>\n<td>4</td>\n<td>4</td>\n<td>4</td>\n<td>4</td>\n<td>4</td>\n<td>4</td>\n<td>4</td>\n<td>4</td>\n<td>1* </td>\n</tr>\n<tr>\n<td>20</td>\n<td>5</td>\n<td>4</td>\n<td>4</td>\n<td>4</td>\n<td>4</td>\n<td>4</td>\n<td>4</td>\n<td>4</td>\n<td>4</td>\n<td>4</td>\n<td>1* </td>\n</tr>\n<tr>\n<td colspan=\"12\">* The bloodline paragon class feature gives you a 10th-level spell slot that works a bit differently from other spell slots.</td>\n</tr>\n</tbody>\n</table>"
        },
        "featType": {
            "value": "classfeature"
        },
        "level": {
            "value": 1
        },
        "location": "",
        "prerequisites": {
            "value": []
        },
        "rules": [],
        "source": {
            "value": ""
        },
        "traits": {
            "custom": "",
            "rarity": {
                "value": "common"
            },
            "selected": {
                "sorcerer": "Sorcerer"
            },
            "value": [
                "sorcerer"
            ]
        }
    },
    "effects": [],
    "flags": {},
    "img": "systems/pf2e/icons/features/classes/signature-spells-sorcerer.webp",
    "name": "Sorcerer Spellcasting",
    "type": "feat"
}
