{
    "_id": "P34Jx6i4GJGoqTtG",
    "data": {
        "actionCategory": {
            "value": ""
        },
        "actionType": {
            "value": "passive"
        },
        "actions": {
            "value": null
        },
        "description": {
            "value": "<p>All of your spells are signature spells. That means that if you know a spell, you can heighten it freely by casting it from a higher-level spell slot, up to the maximum level of spell you can cast. You can similarly cast any of its lower-level versions without learning them separately.</p>"
        },
        "featType": {
            "value": "classfeature"
        },
        "level": {
            "value": 3
        },
        "location": "",
        "prerequisites": {
            "value": []
        },
        "rules": [],
        "source": {
            "value": ""
        },
        "traits": {
            "custom": "",
            "rarity": {
                "value": "common"
            },
            "value": [
                "summoner"
            ]
        }
    },
    "effects": [],
    "flags": {},
    "img": "systems/pf2e/icons/features/classes/unlimited-signature-spells.webp",
    "name": "Unlimited Signature Spells",
    "type": "feat"
}
