{
    "_id": "A0sMo1L0271yLeDA",
    "data": {
        "ability": {
            "value": ""
        },
        "area": {
            "areaType": "",
            "value": ""
        },
        "autoHeightenLevel": {
            "value": null
        },
        "category": {
            "value": "spell"
        },
        "components": {
            "focus": false,
            "material": true,
            "somatic": true,
            "verbal": true
        },
        "cost": {
            "value": ""
        },
        "damage": {
            "value": {}
        },
        "description": {
            "value": "<p>You create a duplicate of your companion, and the duplicate fights alongside its twin, mirroring the original's actions. The duplicate appears adjacent to your companion and has the same statistics.</p>\n<p>Each time you Command your companion, both your companion and its duplicate gain 2 actions. The duplicate always acts immediately after your companion and must use identical actions to the ones your companion used, in exactly the same order. However, it can use the actions differently, such as Striding to a different position or selecting a different target for a Strike. If the duplicate is unable to mimic an action, it performs the action without result and the action is wasted. The duplicate can't use any actions that can be used only a limited number of times per day.</p>\n<p>The duplicate isn't truly alive and can't be healed in any way. If the duplicate ever reaches 0 Hit Points, it is instantly destroyed and clone companion immediately ends.</p>"
        },
        "duration": {
            "value": "sustained up to 1 minute"
        },
        "hasCounteractCheck": {
            "value": false
        },
        "level": {
            "value": 8
        },
        "location": {
            "value": ""
        },
        "materials": {
            "value": ""
        },
        "prepared": {
            "value": ""
        },
        "range": {
            "value": "30 feet"
        },
        "rules": [],
        "save": {
            "basic": "",
            "value": ""
        },
        "school": {
            "value": "conjuration"
        },
        "source": {
            "value": "Pathfinder Secrets of Magic"
        },
        "spellType": {
            "value": "utility"
        },
        "sustained": {
            "value": false
        },
        "target": {
            "value": "your companion"
        },
        "time": {
            "value": "3"
        },
        "traditions": {
            "custom": "",
            "value": [
                "primal"
            ]
        },
        "traits": {
            "custom": "",
            "rarity": {
                "value": "common"
            },
            "value": []
        }
    },
    "effects": [],
    "flags": {},
    "img": "systems/pf2e/icons/spells/clone-companion.webp",
    "name": "Clone Companion",
    "type": "spell"
}
