{
    "_id": "m5QS8q5M6K0euKcT",
    "data": {
        "ability": {
            "value": ""
        },
        "area": {
            "areaType": "",
            "value": ""
        },
        "autoHeightenLevel": {
            "value": null
        },
        "category": {
            "value": "spell"
        },
        "components": {
            "focus": false,
            "material": false,
            "somatic": true,
            "verbal": false
        },
        "cost": {
            "value": ""
        },
        "damage": {
            "value": {}
        },
        "description": {
            "value": "<p>You purify some dirt or mud into a pliable, claylike plaster that can aid in clotting and healing. This restorative substance can be used in lieu of healer's tools for Medicine checks to Administer First Aid or Treat Wounds. If the plaster isn't used within the spell's duration, or if you Cast the Spell again before using the plaster, it reverts to being normal non-magical earth.</p>\n<hr />\n<p><strong>Heightened (3rd)</strong> The plaster grants anyone using it to Administer First Aid or Treat Wounds a +1 item bonus to the Medicine check.</p>"
        },
        "duration": {
            "value": "10 minutes"
        },
        "hasCounteractCheck": {
            "value": false
        },
        "level": {
            "value": 1
        },
        "location": {
            "value": ""
        },
        "materials": {
            "value": ""
        },
        "range": {
            "value": "5 feet"
        },
        "rules": [],
        "save": {
            "basic": "",
            "value": ""
        },
        "school": {
            "value": "transmutation"
        },
        "source": {
            "value": "Pathfinder Secrets of Magic"
        },
        "spellType": {
            "value": "utility"
        },
        "sustained": {
            "value": false
        },
        "target": {
            "value": "a handful of dirt or mud"
        },
        "time": {
            "value": "1"
        },
        "traditions": {
            "custom": "",
            "value": [
                "primal"
            ]
        },
        "traits": {
            "custom": "",
            "rarity": {
                "value": "common"
            },
            "value": [
                "cantrip",
                "earth"
            ]
        }
    },
    "effects": [],
    "flags": {},
    "img": "systems/pf2e/icons/spells/healing-plaster.webp",
    "name": "Healing Plaster",
    "type": "spell"
}
