{
    "_id": "ER1LOEgCLtmEKd05",
    "data": {
        "ability": {
            "value": ""
        },
        "area": {
            "areaType": "",
            "value": ""
        },
        "autoHeightenLevel": {
            "value": null
        },
        "category": {
            "value": "spell"
        },
        "components": {
            "focus": false,
            "material": true,
            "somatic": true,
            "verbal": true
        },
        "cost": {
            "value": ""
        },
        "damage": {
            "value": {}
        },
        "description": {
            "value": "<p>You place a ward upon the door that triggers when a creature attempts to open, unlock, or destroy the door. When that happens, the door transforms into a @Compendium[pf2e.pathfinder-bestiary.Mimic]{Mimic} that can't move and is hostile to all creatures. When Casting the Spell, you designate yourself and up to 10 other creatures of your choice; these creatures don't trigger the ward, and the mimic is helpful to them instead of hostile. No effect can move the mimic unless it's also capable of moving the entire door. Once the door transforms into a mimic, it attacks creatures in its reach for up to 1 minute, and then the spell ends. If the mimic is killed before that time, the spell ends and the door returns to its normal form.</p>\n<p>While turned into a mimic, the door can't be opened, unlocked, or bypassed-not even by the designated creatures. It's a creature, not a door, during that time. When the spell ends, the door returns to the state it was in before the ward was triggered.</p>"
        },
        "duration": {
            "value": "1 hour"
        },
        "hasCounteractCheck": {
            "value": false
        },
        "level": {
            "value": 4
        },
        "location": {
            "value": ""
        },
        "materials": {
            "value": ""
        },
        "range": {
            "value": "30 feet"
        },
        "rules": [],
        "save": {
            "basic": "",
            "value": ""
        },
        "school": {
            "value": "abjuration"
        },
        "source": {
            "value": "Pathfinder Secrets of Magic"
        },
        "spellType": {
            "value": "utility"
        },
        "sustained": {
            "value": false
        },
        "target": {
            "value": "1 door no more than 10 feet tall and 5 feet wide"
        },
        "time": {
            "value": "3"
        },
        "traditions": {
            "custom": "",
            "value": [
                "arcane",
                "occult"
            ]
        },
        "traits": {
            "custom": "",
            "rarity": {
                "value": "common"
            },
            "value": []
        }
    },
    "effects": [],
    "flags": {},
    "img": "systems/pf2e/icons/spells/ravenous-portal.webp",
    "name": "Ravenous Portal",
    "type": "spell"
}
