{
    "_id": "1bw6XJMOERcbC5Iq",
    "data": {
        "ability": {
            "value": ""
        },
        "area": {
            "areaType": "",
            "value": ""
        },
        "autoHeightenLevel": {
            "value": null
        },
        "category": {
            "value": "spell"
        },
        "components": {
            "focus": false,
            "material": false,
            "somatic": false,
            "verbal": false
        },
        "cost": {
            "value": ""
        },
        "damage": {
            "applyMod": false,
            "value": {
                "0": {
                    "applyMod": false,
                    "type": {
                        "subtype": "",
                        "value": "negative"
                    },
                    "value": "5d6"
                }
            }
        },
        "description": {
            "value": "<p>You supernaturally rip the spirit from a living creature's body, dooming the target to pain and death. The target takes 5d6 negative damage, depending on its basic Fortitude save, and is @Compendium[pf2e.conditionitems.Drained]{Drained 1} if it fails its save. The spell's effect is based on how many actions you spend when Casting the Spell.</p>\n<p><span class=\"pf2-icon\">1</span> <strong>(somatic)</strong> The spell targets one living creature in range.</p>\n<p><span class=\"pf2-icon\">2</span> <strong>(somatic, verbal)</strong> The spell targets one living creature in range and the damage is [[/r {10d6}[negative]]]{10d6 negative damage} instead of 5d6.</p>\n<p><span class=\"pf2-icon\">3</span> <strong>(material, somatic, verbal)</strong> The spell targets all living creatures in a 30-foot emanation.</p>\n<hr />\n<p><strong>Heightened (+1)</strong> The amount of damage increases by 1d6, or by [[/r 2d6]] for the 2-action version.</p>"
        },
        "duration": {
            "value": ""
        },
        "hasCounteractCheck": {
            "value": false
        },
        "level": {
            "value": 5
        },
        "location": {
            "value": ""
        },
        "materials": {
            "value": ""
        },
        "range": {
            "value": "30 feet"
        },
        "rules": [],
        "save": {
            "basic": "basic",
            "value": "fortitude"
        },
        "scaling": {
            "damage": {
                "0": "1d6"
            },
            "interval": 1
        },
        "school": {
            "value": "evocation"
        },
        "source": {
            "value": "Pathfinder Secrets of Magic"
        },
        "spellType": {
            "value": "save"
        },
        "sustained": {
            "value": false
        },
        "target": {
            "value": "1 living creature"
        },
        "time": {
            "value": "1 to 3"
        },
        "traditions": {
            "custom": "",
            "value": [
                "divine",
                "occult"
            ]
        },
        "traits": {
            "custom": "",
            "rarity": {
                "value": "common"
            },
            "value": [
                "death",
                "negative"
            ]
        }
    },
    "effects": [],
    "flags": {},
    "img": "systems/pf2e/icons/spells/rip-the-spirit.webp",
    "name": "Rip the Spirit",
    "type": "spell"
}
