{
    "_id": "wn4EbYk1QN3tyFhh",
    "data": {
        "actionCategory": {
            "value": ""
        },
        "actionType": {
            "value": "passive"
        },
        "actions": {
            "value": null
        },
        "description": {
            "value": "<p>Your calloused hands and red eyes speak to a life spent in the deep darkness of mountain caverns, where you learned to battle on rocky cliffs and survive with minimal resources. You gain the @Compendium[pf2e.feats-srd.Terrain Expertise]{Terrain Expertise} skill feat for underground terrain and the @Compendium[pf2e.feats-srd.Combat Climber]{Combat Climber} skill feat.</p>"
        },
        "featType": {
            "value": "heritage"
        },
        "level": {
            "value": 1
        },
        "location": "",
        "prerequisites": {
            "value": []
        },
        "rules": [],
        "source": {
            "value": ""
        },
        "traits": {
            "custom": "",
            "rarity": {
                "value": "common"
            },
            "value": [
                "orc"
            ]
        }
    },
    "effects": [],
    "flags": {},
    "img": "systems/pf2e/icons/features/ancestry/deep-orc.webp",
    "name": "Deep Orc",
    "type": "feat"
}
