{
    "_id": "Tpuqwt6Af29EMtqX",
    "data": {
        "abilities": {
            "cha": {
                "mod": -5
            },
            "con": {
                "mod": 3
            },
            "dex": {
                "mod": 4
            },
            "int": {
                "mod": -5
            },
            "str": {
                "mod": 6
            },
            "wis": {
                "mod": 0
            }
        },
        "attributes": {
            "ac": {
                "details": "",
                "value": 27
            },
            "allSaves": {
                "value": ""
            },
            "hp": {
                "details": "",
                "max": 150,
                "temp": 0,
                "value": 150
            },
            "initiative": {
                "ability": "perception"
            },
            "perception": {
                "value": 15
            },
            "shield": {
                "ac": 0,
                "brokenThreshold": 0,
                "hardness": 0,
                "max": 0,
                "value": 0
            },
            "speed": {
                "details": "",
                "otherSpeeds": [],
                "value": "25"
            }
        },
        "details": {
            "alignment": {
                "value": "N"
            },
            "blurb": "",
            "creatureType": "Construct",
            "level": {
                "value": 9
            },
            "privateNotes": "",
            "publicNotes": "<p>This golem is a walking alchemical nightmare capable of inflicting all manner of painful wounds. Its ability to follow orders is granted by the otherwise mindless humanoid brain that floats in its dome-like head. In exceptionally rare cases, the brain used in its creation might retain fragments of memories or even actual intellect, resulting in an alchemical golem with a personality and agenda of its own.</p>\n<hr />\n<p>Crafted of base materials and then magically animated into a powerful guardian, the legendary golem is a living construct that mindlessly obeys its creator's commands-often continuing to do so for years or even centuries after its creator's death. There exist two known methods of animating a golem. The traditional method involves harvesting and implanting an elemental soul or essence within the newly crafted host statue, a procedure seen as vile and blasphemous to those who value the sanctity of the soul; evil or amoral golem crafters tend to prefer this method. The other, less disreputable technique involves siphoning pure positive energy into the statue to artificially imitate the creation of a soul. The result does not give the golem a true soul and is generally a more costly and time-consuming method of creation. Regardless of the method used, the resulting golem functions the same. A golem's unique animating force leaves it susceptible to certain forms of magic, but apart from these few weaknesses, it is impervious to magic and difficult to damage with weapons.</p>\n<p>Golems work best in play as foes to vanquish rather than allies to accompany player characters on adventures. The process of creating a golem is time-consuming, expensive, and difficult, and only the most talented spellcasters or artisans can even hope to accomplish such an undertaking. While certain magical texts-so-called \"golem manuals\"-are said to aid golems crafters, for the most part the creation of a golem should be something left in the hands of the Game Master.</p>\n<p>Golems have components that can be harvested as trophies or magical components; the value depends on the golem in question. Examples of components that can be harvested from golems are listed in the sidebars.</p>",
            "source": {
                "author": "",
                "value": "Pathfinder Bestiary"
            }
        },
        "resources": {},
        "saves": {
            "fortitude": {
                "saveDetail": "",
                "value": 20
            },
            "reflex": {
                "saveDetail": "",
                "value": 19
            },
            "will": {
                "saveDetail": "",
                "value": 15
            }
        },
        "traits": {
            "attitude": {
                "value": "hostile"
            },
            "ci": [],
            "di": {
                "custom": "Magic (see Golem Antimagic)",
                "value": [
                    "acid",
                    "bleed",
                    "death-effects",
                    "disease",
                    "doomed",
                    "drained",
                    "fatigued",
                    "healing",
                    "mental",
                    "necromancy",
                    "nonlethal-attacks",
                    "paralyzed",
                    "poison",
                    "sickened",
                    "unconscious"
                ]
            },
            "dr": [
                {
                    "exceptions": "adamantine or bludgeoning",
                    "type": "physical",
                    "value": 12
                }
            ],
            "dv": [],
            "languages": {
                "custom": "",
                "selected": [],
                "value": []
            },
            "rarity": {
                "value": "uncommon"
            },
            "senses": {
                "value": "darkvision"
            },
            "size": {
                "value": "lg"
            },
            "traits": {
                "custom": "",
                "value": [
                    "alchemical",
                    "construct",
                    "golem",
                    "mindless"
                ]
            }
        }
    },
    "effects": [],
    "flags": {},
    "img": "systems/pf2e/icons/default-icons/npc.svg",
    "items": [
        {
            "_id": "deSS0MPuciBz6LLK",
            "data": {
                "attack": {
                    "value": ""
                },
                "attackEffects": {
                    "custom": "",
                    "value": [
                        "alchemical-injection"
                    ]
                },
                "bonus": {
                    "value": 22
                },
                "damageRolls": {
                    "apipa74rdq4vghagf56h": {
                        "damage": "2d10+6",
                        "damageType": "piercing"
                    }
                },
                "description": {
                    "value": ""
                },
                "rules": [],
                "slug": null,
                "source": {
                    "value": ""
                },
                "traits": {
                    "custom": "",
                    "rarity": {
                        "value": "common"
                    },
                    "value": [
                        "magical",
                        "reach-10"
                    ]
                },
                "weaponType": {
                    "value": "melee"
                }
            },
            "effects": [],
            "flags": {},
            "img": "systems/pf2e/icons/default-icons/melee.svg",
            "name": "Syringe",
            "sort": 100000,
            "type": "melee"
        },
        {
            "_id": "Yo23Art466hO6dEO",
            "data": {
                "attack": {
                    "value": ""
                },
                "attackEffects": {
                    "custom": "",
                    "value": [
                        "generate-bomb"
                    ]
                },
                "bonus": {
                    "value": 20
                },
                "damageRolls": {},
                "description": {
                    "value": ""
                },
                "rules": [],
                "slug": null,
                "source": {
                    "value": ""
                },
                "traits": {
                    "custom": "",
                    "rarity": {
                        "value": "common"
                    },
                    "value": [
                        "magical",
                        "thrown-20"
                    ]
                },
                "weaponType": {
                    "value": "ranged"
                }
            },
            "effects": [],
            "flags": {},
            "img": "systems/pf2e/icons/default-icons/melee.svg",
            "name": "Bomb",
            "sort": 200000,
            "type": "melee"
        },
        {
            "_id": "ExqWcZmrd3RhXgLt",
            "data": {
                "actionCategory": {
                    "value": "interaction"
                },
                "actionType": {
                    "value": "passive"
                },
                "actions": {
                    "value": null
                },
                "description": {
                    "value": "<p>@Localize[PF2E.NPC.Abilities.Glossary.Darkvision]</p>"
                },
                "requirements": {
                    "value": ""
                },
                "rules": [],
                "slug": "darkvision",
                "source": {
                    "value": ""
                },
                "traits": {
                    "custom": "",
                    "rarity": {
                        "value": "common"
                    },
                    "value": []
                },
                "trigger": {
                    "value": ""
                },
                "weapon": {
                    "value": ""
                }
            },
            "effects": [],
            "flags": {
                "core": {
                    "sourceId": "Compendium.pf2e.bestiary-ability-glossary-srd.qCCLZhnp2HhP3Ex6"
                }
            },
            "img": "systems/pf2e/icons/actions/Passive.webp",
            "name": "Darkvision",
            "sort": 300000,
            "type": "action"
        },
        {
            "_id": "TpEz65tv1dwJ91cy",
            "data": {
                "actionCategory": {
                    "value": "defensive"
                },
                "actionType": {
                    "value": "passive"
                },
                "actions": {
                    "value": null
                },
                "description": {
                    "value": "<p>An alchemical golem's body contains six alchemical chambers filled with different substances. When an alchemical golem ability calls upon a randomly determined alchemical effect, roll 1d6 and consult the following:</p>\n<table class=\"pf2-table\">\n<thead>\n<tr>\n<th>[[/br {1d6}[Alchemical Effect] #Alchemical Chambers]]{1d6}</th>\n<th>Alchemical Effect</th>\n</tr>\n</thead>\n<tbody>\n<tr>\n<td>1</td>\n<td>\n<p>Acid Damage</p>\n</td>\n</tr>\n<tr>\n<td>2</td>\n<td>Cold Damage</td>\n</tr>\n<tr>\n<td>3</td>\n<td>Electricity Damage</td>\n</tr>\n<tr>\n<td>4</td>\n<td>Fire Damage</td>\n</tr>\n<tr>\n<td>5</td>\n<td>Poison Damage</td>\n</tr>\n<tr>\n<td>6</td>\n<td>Sickness: <span data-pf2-check=\"fortitude\" data-pf2-traits=\"disease\" data-pf2-label=\"Alchemical Sickness DC\" data-pf2-dc=\"26\" data-pf2-show-dc=\"gm\">Fortitude</span> save or @Compendium[pf2e.conditionitems.Sickened]{Sickened 1} (@Compendium[pf2e.conditionitems.Sickened]{Sickened 2} on a critical failure)</td>\n</tr>\n</tbody>\n</table>"
                },
                "requirements": {
                    "value": ""
                },
                "rules": [],
                "slug": null,
                "source": {
                    "value": ""
                },
                "traits": {
                    "custom": "",
                    "rarity": {
                        "value": "common"
                    },
                    "value": []
                },
                "trigger": {
                    "value": ""
                },
                "weapon": {
                    "value": ""
                }
            },
            "effects": [],
            "flags": {},
            "img": "systems/pf2e/icons/actions/Passive.webp",
            "name": "Alchemical Chambers",
            "sort": 400000,
            "type": "action"
        },
        {
            "_id": "N0g5xdIF3LC3JDxP",
            "data": {
                "actionCategory": {
                    "value": "defensive"
                },
                "actionType": {
                    "value": "passive"
                },
                "actions": {
                    "value": null
                },
                "description": {
                    "value": "<p>When an alchemical golem takes physical damage from a critical hit or is affected by a <em>@Compendium[pf2e.spells-srd.Shatter]{Shatter}</em> spell, one glass chamber within its body shatters, spewing alchemical liquid in a @Template[type:emanation|distance:5]{5-foot emanation}.</p>\n<p>Roll on the alchemical chambers list to determine which one shatters-on a roll of 1-5, creatures in the area take [[/r {10d6}]]{10d6 damage} of the appropriate type (<span data-pf2-check=\"reflex\" data-pf2-dc=\"28\" data-pf2-traits=\"damaging-effect\" data-pf2-label=\"Alchemical Rupture DC\" data-pf2-show-dc=\"gm\">basic Reflex</span>). On a roll of 6, creatures must instead save against the sickness effect.</p>\n<table class=\"pf2-table\">\n<thead>\n<tr>\n<th>[[/br {1d6}[Alchemical Effect] #Alchemical Rupture]]{1d6}</th>\n<th>Alchemical Effect</th>\n</tr>\n</thead>\n<tbody>\n<tr>\n<td>1</td>\n<td>\n<p>[[/r {10d6}[acid]]]{10d6 acid damage} <span data-pf2-check=\"reflex\" data-pf2-dc=\"28\" data-pf2-traits=\"acid,damaging-effect\" data-pf2-label=\"Alchemical Rupture DC\" data-pf2-show-dc=\"gm\">basic Reflex</span></p>\n</td>\n</tr>\n<tr>\n<td>2</td>\n<td>[[/r {10d6}[cold]]]{10d6 cold damage} <span data-pf2-check=\"reflex\" data-pf2-dc=\"28\" data-pf2-traits=\"cold,damaging-effect\" data-pf2-label=\"Alchemical Rupture DC\" data-pf2-show-dc=\"gm\">basic Reflex</span></td>\n</tr>\n<tr>\n<td>3</td>\n<td>[[/r {10d6}[electricity]]]{10d6 electricity damage} <span data-pf2-check=\"reflex\" data-pf2-dc=\"28\" data-pf2-traits=\"electricity,damaging-effect\" data-pf2-label=\"Alchemical Rupture DC\" data-pf2-show-dc=\"gm\">basic Reflex</span></td>\n</tr>\n<tr>\n<td>4</td>\n<td>[[/r {10d6}[fire]]]{10d6 fire damage} <span data-pf2-check=\"reflex\" data-pf2-dc=\"28\" data-pf2-traits=\"fire,damaging-effect\" data-pf2-label=\"Alchemical Rupture DC\" data-pf2-show-dc=\"gm\">basic Reflex</span></td>\n</tr>\n<tr>\n<td>5</td>\n<td>[[/r {10d6}[poison]]]{10d6 poison damage} <span data-pf2-check=\"reflex\" data-pf2-dc=\"28\" data-pf2-traits=\"poison,damaging-effect\" data-pf2-label=\"Alchemical Rupture DC\" data-pf2-show-dc=\"gm\">basic Reflex</span></td>\n</tr>\n<tr>\n<td>6</td>\n<td>Sickness: <span data-pf2-check=\"fortitude\" data-pf2-traits=\"disease\" data-pf2-label=\"Alchemical Sickness DC\" data-pf2-dc=\"26\" data-pf2-show-dc=\"gm\">Fortitude</span> save or @Compendium[pf2e.conditionitems.Sickened]{Sickened 1} (@Compendium[pf2e.conditionitems.Sickened]{Sickened 2} on a critical failure)</td>\n</tr>\n</tbody>\n</table>"
                },
                "requirements": {
                    "value": ""
                },
                "rules": [],
                "slug": null,
                "source": {
                    "value": ""
                },
                "traits": {
                    "custom": "",
                    "rarity": {
                        "value": "common"
                    },
                    "value": []
                },
                "trigger": {
                    "value": ""
                },
                "weapon": {
                    "value": ""
                }
            },
            "effects": [],
            "flags": {},
            "img": "systems/pf2e/icons/actions/Passive.webp",
            "name": "Alchemical Rupture",
            "sort": 500000,
            "type": "action"
        },
        {
            "_id": "pOtIHukgdOyL8rMp",
            "data": {
                "actionCategory": {
                    "value": "defensive"
                },
                "actionType": {
                    "value": "passive"
                },
                "actions": {
                    "value": null
                },
                "description": {
                    "value": "<p>harmed by sonic ([[/r {5d8}]]{5d8 damage}, [[/r {2d6}]]{2d6 damage} from areas or persistent damage; healed by acid (area [[/r {2d4}[healing]]]{2d4 Hit Points}); slowed by cold</p>\n<hr />\n<p>A golem is immune to spells and magical abilities other than its own, but each type of golem is affected by a few types of magic in special ways. If an entry lists multiple types (such as \"cold and water\"), either type of spell can affect the golem.</p>\n<p><strong>Harmed By</strong> Any magic of this type that targets the golem causes it to take the listed amount of damage (this damage has no type) instead of the usual effect. If the golem starts its turn in an area of magic of this type or is affected by a persistent effect of the appropriate type, it takes the damage listed in the parenthetical.</p>\n<p><strong>Healed By</strong> Any magic of this type that targets the golem makes the golem lose the slowed condition and gain HP equal to half the damage the spell would have dealt. If the golem starts its turn in an area of this type of magic, it gains the HP listed in the parenthetical.</p>\n<p><strong>Slowed By</strong> Any magic of this type that targets the golem causes it to be @Compendium[pf2e.conditionitems.Slowed]{Slowed 1} for [[/br 2d6 #rounds]]{2d6 rounds} instead of the usual effect. If the golem starts its turn in an area of this type of magic, it's @Compendium[pf2e.conditionitems.Slowed]{Slowed 1} for that round.</p>\n<p><strong>Vulnerable To</strong> Each golem is vulnerable to one or more specific spells, with the effects described in its stat block.</p>"
                },
                "requirements": {
                    "value": ""
                },
                "rules": [],
                "slug": "golem-golem-antimagic",
                "source": {
                    "value": "Pathfinder Bestiary"
                },
                "traits": {
                    "custom": "",
                    "rarity": {
                        "value": "common"
                    },
                    "value": []
                },
                "trigger": {
                    "value": ""
                },
                "weapon": {
                    "value": ""
                }
            },
            "effects": [],
            "flags": {
                "core": {
                    "sourceId": "Compendium.pf2e.bestiary-family-ability-glossary.r34QDwKiWZoVymJa"
                }
            },
            "img": "systems/pf2e/icons/actions/Passive.webp",
            "name": "Golem Antimagic",
            "sort": 600000,
            "type": "action"
        },
        {
            "_id": "tq3HesFWx5P7xPWl",
            "data": {
                "actionCategory": {
                    "value": "defensive"
                },
                "actionType": {
                    "value": "passive"
                },
                "actions": {
                    "value": null
                },
                "description": {
                    "value": "<p>Casting a <em>@Compendium[pf2e.spells-srd.Shatter]{Shatter}</em> spell on an alchemical golem affects the golem normally, but also causes an alchemical rupture .</p>"
                },
                "requirements": {
                    "value": ""
                },
                "rules": [],
                "slug": null,
                "source": {
                    "value": ""
                },
                "traits": {
                    "custom": "",
                    "rarity": {
                        "value": "common"
                    },
                    "value": []
                },
                "trigger": {
                    "value": ""
                },
                "weapon": {
                    "value": ""
                }
            },
            "effects": [],
            "flags": {},
            "img": "systems/pf2e/icons/actions/Passive.webp",
            "name": "Vulnerable to Shatter",
            "sort": 700000,
            "type": "action"
        },
        {
            "_id": "ahtVNJjKjna3LTc1",
            "data": {
                "actionCategory": {
                    "value": "offensive"
                },
                "actionType": {
                    "value": "passive"
                },
                "actions": {
                    "value": null
                },
                "description": {
                    "value": "<p>When an alchemical golem hits a creature with a syringe Strike, roll 1d6 on the alchemical chambers list to determine the additional effect of the attack. The syringe deals an additional [[/r {2d6}]]{2d6 damage} of the appropriate type (or exposes the target to the sickness effect, as appropriate).</p>\n<table class=\"pf2-table\">\n<thead>\n<tr>\n<th>[[/br {1d6}[Alchemical Effect] #Alchemical Injection]]{1d6}</th>\n<th>Alchemical Effect</th>\n</tr>\n</thead>\n<tbody>\n<tr>\n<td>1</td>\n<td>\n<p>[[/r {2d6}[acid]]]{2d6 acid damage}</p>\n</td>\n</tr>\n<tr>\n<td>2</td>\n<td>[[/r {2d6}[cold]]]{2d6 cold damage}</td>\n</tr>\n<tr>\n<td>3</td>\n<td>[[/r {2d6}[electricity]]]{2d6 electricity damage}</td>\n</tr>\n<tr>\n<td>4</td>\n<td>[[/r {2d6}[fire]]]{2d6 fire damage}</td>\n</tr>\n<tr>\n<td>5</td>\n<td>[[/r {2d6}[poison]]]{2d6 poison damage}</td>\n</tr>\n<tr>\n<td>6</td>\n<td>Sickness: <span data-pf2-check=\"fortitude\" data-pf2-traits=\"disease\" data-pf2-label=\"Alchemical Sickness DC\" data-pf2-dc=\"26\" data-pf2-show-dc=\"gm\">Fortitude</span> save or @Compendium[pf2e.conditionitems.Sickened]{Sickened 1} (@Compendium[pf2e.conditionitems.Sickened]{Sickened 2} on a critical failure)</td>\n</tr>\n</tbody>\n</table>"
                },
                "requirements": {
                    "value": ""
                },
                "rules": [],
                "slug": null,
                "source": {
                    "value": ""
                },
                "traits": {
                    "custom": "",
                    "rarity": {
                        "value": "common"
                    },
                    "value": []
                },
                "trigger": {
                    "value": ""
                },
                "weapon": {
                    "value": ""
                }
            },
            "effects": [],
            "flags": {},
            "img": "systems/pf2e/icons/actions/Passive.webp",
            "name": "Alchemical Injection",
            "sort": 800000,
            "type": "action"
        },
        {
            "_id": "IUmBG7HtxvrIOHUR",
            "data": {
                "actionCategory": {
                    "value": "offensive"
                },
                "actionType": {
                    "value": "action"
                },
                "actions": {
                    "value": 1
                },
                "description": {
                    "value": "<p>The golem fills an empty vial from one of its alchemical chambers to create a bomb and then makes a bomb Strike.</p>\n<p>Determine the type of bomb created by rolling 1d6 on the alchemical chambers list.</p>\n<p>On a roll of 1-4, it creates the corresponding greater alchemical bomb: an @Compendium[pf2e.equipment-srd.Acid Flask (Greater)]{Acid Flask} from chamber 1, a @Compendium[pf2e.equipment-srd.Frost Vial (Greater)]{Frost Vial} from chamber 2, @Compendium[pf2e.equipment-srd.Bottled Lightning (Greater)]{Bottled Lightning} from chamber 3, or @Compendium[pf2e.equipment-srd.Alchemist's Fire (Greater)]{Alchemist's Fire} from chamber 4.</p>\n<p>On a roll of 5, it creates a poisonous bomb that deals 3d10 poison damage and 3 poison splash damage with no other effects.</p>\n<p>On a roll of 6, it creates a sickness bomb, which exposes the target and all creatures in the splash radius to the sickness effect; creatures hit by only the splash receive a +2 circumstance bonus to their Fortitude saves.</p>\n<table class=\"pf2-table\">\n<thead>\n<tr>\n<th>[[/br {1d6}[Alchemical Effect] #Generate Bomb]]{1d6}</th>\n<th>Alchemical Effect</th>\n</tr>\n</thead>\n<tbody>\n<tr>\n<td>1</td>\n<td>\n<p>Acid Flask: [[/r {1}[acid]]]{1 acid damage}, [[/r {3d6}[persistent,acid]]]{3d6 persistent acid damage}@Compendium[pf2e.conditionitems.Persistent Damage]{Persistent Acid Damage} and [[/r {3}[splash,acid]]]{3 acid splash damage}</p>\n</td>\n</tr>\n<tr>\n<td>2</td>\n<td>Frost Vial: [[/r {3d6}[cold]]]{3d6 cold damage}, [[/r {3}[splash,cold]]]{3 cold splash damage} and -10-foot status penalty to Speeds until end of targets next turn @Compendium[pf2e.equipment-effects.Effect: Frost Vial (Greater)]{Effect: Frost Vial (Greater)}</td>\n</tr>\n<tr>\n<td>3</td>\n<td>Bottled Lightning: [[/r {3d6}[electricity]]]{3d6 electricity damage}, [[/r {3}[splash,electricity]]]{3 electricity splash damage} and @Compendium[pf2e.conditionitems.Flat-Footed]{Flat-Footed} until start of targets next turn</td>\n</tr>\n<tr>\n<td>4</td>\n<td>Alchemist's Fire: [[/r {3d8}[fire]]]{3d8 fire damage}, [[/r {3}[persistent,fire]]]{3 persistent fire damage}@Compendium[pf2e.conditionitems.Persistent Damage]{Persistent Fire Damage} and [[/r {3}[splash,fire]]]{3 fire splash damage}</td>\n</tr>\n<tr>\n<td>5</td>\n<td>Poisonous Bomb: [[/r {3d10}[poison]]]{3d10 poison damage} and [[/r {3}[splash,poison]]]{3 poison splash damage}</td>\n</tr>\n<tr>\n<td>6</td>\n<td>Sickness: <span data-pf2-check=\"fortitude\" data-pf2-traits=\"disease\" data-pf2-label=\"Alchemical Sickness DC\" data-pf2-dc=\"26\" data-pf2-show-dc=\"gm\">Fortitude</span> save or @Compendium[pf2e.conditionitems.Sickened]{Sickened 1} (@Compendium[pf2e.conditionitems.Sickened]{Sickened 2} on a critical failure)</td>\n</tr>\n</tbody>\n</table>"
                },
                "requirements": {
                    "value": ""
                },
                "rules": [],
                "slug": null,
                "source": {
                    "value": ""
                },
                "traits": {
                    "custom": "",
                    "rarity": {
                        "value": "common"
                    },
                    "value": [
                        "manipulate"
                    ]
                },
                "trigger": {
                    "value": ""
                },
                "weapon": {
                    "value": ""
                }
            },
            "effects": [],
            "flags": {},
            "img": "systems/pf2e/icons/actions/OneAction.webp",
            "name": "Generate Bomb",
            "sort": 900000,
            "type": "action"
        },
        {
            "_id": "pR9E0zEtv0g9eZqm",
            "data": {
                "description": {
                    "value": ""
                },
                "item": {
                    "value": 0
                },
                "mod": {
                    "value": 22
                },
                "proficient": {
                    "value": 0
                },
                "rules": [],
                "slug": null,
                "source": {
                    "value": ""
                },
                "traits": {
                    "custom": "",
                    "rarity": {
                        "value": "common"
                    },
                    "value": []
                }
            },
            "effects": [],
            "flags": {},
            "img": "systems/pf2e/icons/default-icons/lore.svg",
            "name": "Athletics",
            "sort": 1000000,
            "type": "lore"
        }
    ],
    "name": "Alchemical Golem",
    "token": {
        "disposition": -1,
        "height": 2,
        "img": "systems/pf2e/icons/default-icons/npc.svg",
        "name": "Alchemical Golem",
        "width": 2
    },
    "type": "npc"
}
