{
    "_id": "rvfUqrWM1zFzPBUk",
    "content": "<p>Play after a foe critically fails on a melee Strike against you.</p>\n<hr />\n<p>That foe rerolls the attack, targeting one of its allies within reach.</p>",
    "flags": {},
    "name": "Misdirected Attack",
    "permission": {
        "default": 0
    }
}
