{
    "_id": "f9jyVOOKEvRkvIY4",
    "data": {
        "abilities": {
            "cha": {
                "mod": -5
            },
            "con": {
                "mod": 1
            },
            "dex": {
                "mod": -2
            },
            "int": {
                "mod": -5
            },
            "str": {
                "mod": 3
            },
            "wis": {
                "mod": 0
            }
        },
        "attributes": {
            "ac": {
                "details": "",
                "value": 17
            },
            "allSaves": {
                "value": ""
            },
            "hp": {
                "details": "",
                "max": 28,
                "temp": 0,
                "value": 28
            },
            "initiative": {
                "ability": "perception"
            },
            "perception": {
                "value": 4
            },
            "shield": {
                "ac": 0,
                "brokenThreshold": "0",
                "hardness": 0,
                "max": "0",
                "value": 0
            },
            "speed": {
                "otherSpeeds": [],
                "value": "25"
            }
        },
        "details": {
            "alignment": {
                "value": "N"
            },
            "blurb": "",
            "creatureType": "",
            "level": {
                "value": 2
            },
            "privateNotes": "",
            "publicNotes": "",
            "source": {
                "value": "Pathfinder Society Quest #12: Putrid Seeds"
            }
        },
        "resources": {},
        "saves": {
            "fortitude": {
                "saveDetail": "",
                "value": 10
            },
            "reflex": {
                "saveDetail": "",
                "value": 6
            },
            "will": {
                "saveDetail": "",
                "value": 7
            }
        },
        "traits": {
            "ci": [],
            "di": {
                "custom": "",
                "value": [
                    "bleed",
                    "death-effects",
                    "disease",
                    "doomed",
                    "drained",
                    "electricity",
                    "fatigued",
                    "healing",
                    "magic",
                    "mental",
                    "necromancy",
                    "nonlethal-attacks",
                    "paralyzed",
                    "poison",
                    "sickened",
                    "unconscious"
                ]
            },
            "dr": [
                {
                    "exceptions": "except Adamantine",
                    "label": "Physical",
                    "type": "physical",
                    "value": "2"
                }
            ],
            "dv": [],
            "languages": {
                "custom": "",
                "selected": [],
                "value": []
            },
            "rarity": {
                "value": "uncommon"
            },
            "senses": {
                "value": ""
            },
            "size": {
                "value": "med"
            },
            "traits": {
                "custom": "",
                "value": [
                    "construct",
                    "golem",
                    "mindless"
                ]
            }
        }
    },
    "effects": [],
    "flags": {},
    "img": "systems/pf2e/icons/default-icons/npc.svg",
    "items": [
        {
            "_id": "g484o7C4M7T9Aro9",
            "data": {
                "attack": {
                    "value": ""
                },
                "attackEffects": {
                    "value": []
                },
                "bonus": {
                    "value": 11
                },
                "damageRolls": {
                    "sv9wxwev945zrgi0n947": {
                        "damage": "2d4+3",
                        "damageType": "bludgeoning"
                    }
                },
                "description": {
                    "value": ""
                },
                "rules": [],
                "slug": null,
                "source": {
                    "value": ""
                },
                "traits": {
                    "custom": "",
                    "rarity": {
                        "value": "common"
                    },
                    "value": [
                        "magical"
                    ]
                },
                "weaponType": {
                    "value": "melee"
                }
            },
            "effects": [],
            "flags": {},
            "img": "systems/pf2e/icons/default-icons/melee.svg",
            "name": "Fist",
            "sort": 100000,
            "type": "melee"
        },
        {
            "_id": "T8nBk0ezArDOrf3L",
            "data": {
                "actionCategory": {
                    "value": "defensive"
                },
                "actionType": {
                    "value": "passive"
                },
                "actions": {
                    "value": null
                },
                "description": {
                    "value": "<p>A severely damaged flesh golem has a chance of going berserk. If it has 8 or fewer HP at the start of its turn, the golem must succeed at a <span data-pf2-check=\"flat\" data-pf2-dc=\"5\" data-pf2-label=\"Berserk DC\" data-pf2-show-dc=\"gm\">flat check</span> or go berserk. A berserk golem wildly attacks the nearest living creature, or the nearest object if no creatures are nearby.</p>"
                },
                "requirements": {
                    "value": ""
                },
                "rules": [],
                "slug": null,
                "source": {
                    "value": ""
                },
                "traits": {
                    "custom": "",
                    "rarity": {
                        "value": "common"
                    },
                    "value": []
                },
                "trigger": {
                    "value": ""
                },
                "weapon": {
                    "value": ""
                }
            },
            "effects": [],
            "flags": {},
            "img": "systems/pf2e/icons/actions/Passive.webp",
            "name": "Berserk",
            "sort": 200000,
            "type": "action"
        },
        {
            "_id": "rw114kpT2m0wUT8o",
            "data": {
                "actionCategory": {
                    "value": "defensive"
                },
                "actionType": {
                    "value": "passive"
                },
                "actions": {
                    "value": null
                },
                "description": {
                    "value": "<p>harmed by fire ([[/r {2d6}[fire]]]{2d6 fire damage}, [[/r {1d4}[fire]]]{1d4 fire damage} from areas and persistent damage); healed by electricity (area effects [[/r {1d4}[healing]]]{1d4 Hit Points}); slowed by cold</p>\n<hr />\n<p>A golem is immune to spells and magical abilities other than its own, but each type of golem is affected by a few types of magic in special ways. If an entry lists multiple types (such as 'cold and water'), either type of spell can affect the golem.</p>\n<p><strong>Harmed By</strong> Any magic of this type that targets the golem causes it to take the listed amount of damage (this damage has no type) instead of the usual effect. If the golem starts its turn in an area of magic of this type or is affected by a persistent effect of the appropriate type, it takes the damage listed in the parenthetical.</p>\n<p><strong>Healed By</strong> Any magic of this type that targets the golem makes the golem lose the slowed condition and gain HP equal to half the damage the spell would have dealt. If the golem starts its turn in an area of this type of magic, it gains the HP listed in the parenthetical.</p>\n<p><strong>Slowed By</strong> Any magic of this type that targets the golem causes it to be @Compendium[pf2e.conditionitems.Slowed]{Slowed 1} for [[/br 2d6 #rounds]]{2d6 rounds} instead of the usual effect. If the golem starts its turn in an area of this type of magic, it's @Compendium[pf2e.conditionitems.Slowed]{Slowed 1} for that round.</p>\n<p><strong>Vulnerable To</strong> Each golem is vulnerable to one or more specific spells, with the effects described in its stat block.</p>"
                },
                "requirements": {
                    "value": ""
                },
                "rules": [],
                "slug": null,
                "source": {
                    "value": ""
                },
                "traits": {
                    "custom": "",
                    "rarity": {
                        "value": "common"
                    },
                    "value": []
                },
                "trigger": {
                    "value": ""
                },
                "weapon": {
                    "value": ""
                }
            },
            "effects": [],
            "flags": {},
            "img": "systems/pf2e/icons/actions/Passive.webp",
            "name": "Golem Antimagic",
            "sort": 300000,
            "type": "action"
        },
        {
            "_id": "K6maxzMaNSh637Z0",
            "data": {
                "actionCategory": {
                    "value": "defensive"
                },
                "actionType": {
                    "value": "passive"
                },
                "actions": {
                    "value": null
                },
                "description": {
                    "value": "<p>Casting a <em>@Compendium[pf2e.spells-srd.Flesh to Stone]{Flesh to Stone}</em> spell on the golem affects it normally.</p>"
                },
                "requirements": {
                    "value": ""
                },
                "rules": [],
                "slug": null,
                "source": {
                    "value": ""
                },
                "traits": {
                    "custom": "",
                    "rarity": {
                        "value": "common"
                    },
                    "value": []
                },
                "trigger": {
                    "value": ""
                },
                "weapon": {
                    "value": ""
                }
            },
            "effects": [],
            "flags": {},
            "img": "systems/pf2e/icons/actions/Passive.webp",
            "name": "Vulnerable to Flesh to Stone",
            "sort": 400000,
            "type": "action"
        },
        {
            "_id": "YwqogTIY2G2czSOJ",
            "data": {
                "actionCategory": {
                    "value": "defensive"
                },
                "actionType": {
                    "value": "reaction"
                },
                "actions": {
                    "value": null
                },
                "description": {
                    "value": "<p data-visibility=\"gm\"><strong>Trigger</strong> The golem takes electricity damage and a creature is adjacent to it;</p>\n<p><strong>Effect</strong> The golem lashes out and tries to grab a nearby creature. The golem attempts an Athletics check to Grapple an adjacent creature. The creature also takes [[/r {1d4}[electricity]]]{1d4 electricity damage} on a success, or [[/r {2d4}[electricity]]]{2d4 electricity damage} on a critical success.</p>"
                },
                "requirements": {
                    "value": ""
                },
                "rules": [],
                "slug": null,
                "source": {
                    "value": ""
                },
                "traits": {
                    "custom": "",
                    "rarity": {
                        "value": "common"
                    },
                    "value": []
                },
                "trigger": {
                    "value": ""
                },
                "weapon": {
                    "value": ""
                }
            },
            "effects": [],
            "flags": {},
            "img": "systems/pf2e/icons/actions/Reaction.webp",
            "name": "Electric Reflexes",
            "sort": 500000,
            "type": "action"
        },
        {
            "_id": "A14FpYQMqcimPbMK",
            "data": {
                "actionCategory": {
                    "value": "offensive"
                },
                "actionType": {
                    "value": "action"
                },
                "actions": {
                    "value": 1
                },
                "description": {
                    "value": "<p><strong>Requirements</strong> The golem is berserk;</p>\n<p><strong>Effect</strong> The flesh golem Strikes with its fist at a -1 circumstance penalty. If it hits, it deals [[/r {1d4}]]{1d4 extra damage} and knocks the target @Compendium[pf2e.conditionitems.Prone]{Prone}.</p>"
                },
                "requirements": {
                    "value": ""
                },
                "rules": [
                    {
                        "key": "ToggleProperty",
                        "property": "flags.pf2e.rollOptions.all.berserk-slam"
                    },
                    {
                        "damageType": "bludgeoning",
                        "diceNumber": 1,
                        "dieSize": "d4",
                        "key": "DamageDice",
                        "predicate": {
                            "all": [
                                "berserk-slam"
                            ]
                        },
                        "selector": "damage"
                    },
                    {
                        "key": "FlatModifier",
                        "predicate": {
                            "all": [
                                "berserk-slam"
                            ]
                        },
                        "selector": "attack",
                        "type": "circumstance",
                        "value": -1
                    },
                    {
                        "key": "Note",
                        "predicate": {
                            "all": [
                                "berserk-slam"
                            ]
                        },
                        "selector": "damage",
                        "text": "<p class='compact-text'><strong>{item|name}</strong> The target is knocked @Compendium[pf2e.conditionitems.Prone]{Prone}.</p>"
                    }
                ],
                "slug": null,
                "source": {
                    "value": ""
                },
                "traits": {
                    "custom": "",
                    "rarity": {
                        "value": "common"
                    },
                    "value": []
                },
                "trigger": {
                    "value": ""
                },
                "weapon": {
                    "value": ""
                }
            },
            "effects": [],
            "flags": {},
            "img": "systems/pf2e/icons/actions/OneAction.webp",
            "name": "Berserk Slam",
            "sort": 600000,
            "type": "action"
        },
        {
            "_id": "sfITZwNt96sDjCk7",
            "data": {
                "description": {
                    "value": ""
                },
                "item": {
                    "value": 0
                },
                "mod": {
                    "value": 7
                },
                "proficient": {
                    "value": 0
                },
                "rules": [],
                "slug": null,
                "source": {
                    "value": ""
                },
                "traits": {
                    "custom": "",
                    "rarity": {
                        "value": "common"
                    },
                    "value": []
                }
            },
            "effects": [],
            "flags": {},
            "img": "systems/pf2e/icons/default-icons/lore.svg",
            "name": "Athletics",
            "sort": 700000,
            "type": "lore"
        },
        {
            "_id": "yxu3kxnSasw7RYr8",
            "data": {
                "description": {
                    "value": ""
                },
                "mod": {
                    "value": 0
                },
                "proficient": {
                    "value": 0
                },
                "rules": [
                    {
                        "key": "FlatModifier",
                        "label": "Impersonate a Zombie",
                        "predicate": {
                            "all": [
                                "action:impersonate-zombie"
                            ]
                        },
                        "selector": "deception",
                        "type": "untyped",
                        "value": 9
                    }
                ],
                "slug": null,
                "source": {
                    "value": ""
                },
                "traits": {
                    "custom": "",
                    "rarity": {
                        "value": "common"
                    },
                    "value": []
                },
                "variants": {
                    "0": {
                        "label": "+9 to impersonate a zombie",
                        "options": "action:impersonate-zombie"
                    }
                }
            },
            "effects": [],
            "flags": {},
            "img": "systems/pf2e/icons/default-icons/lore.svg",
            "name": "Deception",
            "sort": 800000,
            "type": "lore"
        }
    ],
    "name": "'Zombie' Flesh Golem (3-4)",
    "token": {
        "disposition": -1,
        "height": 1,
        "img": "systems/pf2e/icons/default-icons/npc.svg",
        "name": "'Zombie' Flesh Golem",
        "width": 1
    },
    "type": "npc"
}
